[
{
	"nutrient" : "potassium_k",
	"gender" : "pregnant",
	"age_lower" : 14,
	"age_upper" : 18,
	"adequate_intake" : 2800,
	"upper_limit" : "",
	"units" : "mg",
	"class" : "micronutrient"
},
{
	"nutrient" : "potassium_k",
	"gender" : "pregnant",
	"age_lower" : 19,
	"age_upper" : 30,
	"adequate_intake" : 2800,
	"upper_limit" : "",
	"units" : "mg",
	"class" : "micronutrient"
},
{
	"nutrient" : "potassium_k",
	"gender" : "pregnant",
	"age_lower" : 31,
	"age_upper" : 50,
	"adequate_intake" : 2800,
	"upper_limit" : "",
	"units" : "mg",
	"class" : "micronutrient"
},
{
	"nutrient" : "potassium_k",
	"gender" : "lactation",
	"age_lower" : 14,
	"age_upper" : 18,
	"adequate_intake" : 3200,
	"upper_limit" : "",
	"units" : "mg",
	"class" : "micronutrient"
},
{
	"nutrient" : "potassium_k",
	"gender" : "lactation",
	"age_lower" : 19,
	"age_upper" : 30,
	"adequate_intake" : 3200,
	"upper_limit" : "",
	"units" : "mg",
	"class" : "micronutrient"
},
{
	"nutrient" : "potassium_k",
	"gender" : "lactation",
	"age_lower" : 31,
	"age_upper" : 50,
	"adequate_intake" : 3200,
	"upper_limit" : "",
	"units" : "mg",
	"class" : "micronutrient"
},
{
	"nutrient" : "sodium_na",
	"gender" : "M",
	"age_lower" : 0,
	"age_upper" : 1,
	"adequate_intake" : 120,
	"upper_limit" : "",
	"units" : "mg",
	"class" : "micronutrient"
},
{
	"nutrient" : "sodium_na",
	"gender" : "M",
	"age_lower" : 1,
	"age_upper" : 1,
	"adequate_intake" : 170,
	"upper_limit" : "",
	"units" : "mg",
	"class" : "micronutrient"
},
{
	"nutrient" : "sodium_na",
	"gender" : "F",
	"age_lower" : 0,
	"age_upper" : 1,
	"adequate_intake" : 120,
	"upper_limit" : "",
	"units" : "mg",
	"class" : "micronutrient"
},
{
	"nutrient" : "sodium_na",
	"gender" : "F",
	"age_lower" : 1,
	"age_upper" : 1,
	"adequate_intake" : 170,
	"upper_limit" : "",
	"units" : "mg",
	"class" : "micronutrient"
},
{
	"nutrient" : "sodium_na",
	"gender" : "M",
	"age_lower" : 1,
	"age_upper" : 3,
	"adequate_intake" : 400,
	"upper_limit" : 1000,
	"units" : "mg",
	"class" : "micronutrient"
},
{
	"nutrient" : "sodium_na",
	"gender" : "M",
	"age_lower" : 4,
	"age_upper" : 8,
	"adequate_intake" : 600,
	"upper_limit" : 1400,
	"units" : "mg",
	"class" : "micronutrient"
},
{
	"nutrient" : "sodium_na",
	"gender" : "F",
	"age_lower" : 1,
	"age_upper" : 3,
	"adequate_intake" : 400,
	"upper_limit" : 1000,
	"units" : "mg",
	"class" : "micronutrient"
},
{
	"nutrient" : "sodium_na",
	"gender" : "F",
	"age_lower" : 4,
	"age_upper" : 8,
	"adequate_intake" : 600,
	"upper_limit" : 1400,
	"units" : "mg",
	"class" : "micronutrient"
},
{
	"nutrient" : "sodium_na",
	"gender" : "M",
	"age_lower" : 9,
	"age_upper" : 13,
	"adequate_intake" : 800,
	"upper_limit" : 2000,
	"units" : "mg",
	"class" : "micronutrient"
},
{
	"nutrient" : "sodium_na",
	"gender" : "M",
	"age_lower" : 14,
	"age_upper" : 18,
	"adequate_intake" : 920,
	"upper_limit" : 2300,
	"units" : "mg",
	"class" : "micronutrient"
},
{
	"nutrient" : "sodium_na",
	"gender" : "F",
	"age_lower" : 9,
	"age_upper" : 13,
	"adequate_intake" : 800,
	"upper_limit" : 2000,
	"units" : "mg",
	"class" : "micronutrient"
},
{
	"nutrient" : "sodium_na",
	"gender" : "F",
	"age_lower" : 14,
	"age_upper" : 18,
	"adequate_intake" : 920,
	"upper_limit" : 2300,
	"units" : "mg",
	"class" : "micronutrient"
},
{
	"nutrient" : "sodium_na",
	"gender" : "M",
	"age_lower" : 19,
	"age_upper" : 30,
	"adequate_intake" : 920,
	"upper_limit" : 2300,
	"units" : "mg",
	"class" : "micronutrient"
},
{
	"nutrient" : "sodium_na",
	"gender" : "M",
	"age_lower" : 31,
	"age_upper" : 50,
	"adequate_intake" : 920,
	"upper_limit" : 2300,
	"units" : "mg",
	"class" : "micronutrient"
},
{
	"nutrient" : "sodium_na",
	"gender" : "M",
	"age_lower" : 51,
	"age_upper" : 70,
	"adequate_intake" : 920,
	"upper_limit" : 2300,
	"units" : "mg",
	"class" : "micronutrient"
},
{
	"nutrient" : "sodium_na",
	"gender" : "M",
	"age_lower" : 71,
	"age_upper" : 200,
	"adequate_intake" : 920,
	"upper_limit" : 2300,
	"units" : "mg",
	"class" : "micronutrient"
},
{
	"nutrient" : "sodium_na",
	"gender" : "F",
	"age_lower" : 19,
	"age_upper" : 30,
	"adequate_intake" : 920,
	"upper_limit" : 2300,
	"units" : "mg",
	"class" : "micronutrient"
},
{
	"nutrient" : "sodium_na",
	"gender" : "F",
	"age_lower" : 31,
	"age_upper" : 50,
	"adequate_intake" : 920,
	"upper_limit" : 2300,
	"units" : "mg",
	"class" : "micronutrient"
},
{
	"nutrient" : "sodium_na",
	"gender" : "F",
	"age_lower" : 51,
	"age_upper" : 70,
	"adequate_intake" : 920,
	"upper_limit" : 2300,
	"units" : "mg",
	"class" : "micronutrient"
},
{
	"nutrient" : "sodium_na",
	"gender" : "F",
	"age_lower" : 71,
	"age_upper" : 200,
	"adequate_intake" : 920,
	"upper_limit" : 2300,
	"units" : "mg",
	"class" : "micronutrient"
},
{
	"nutrient" : "sodium_na",
	"gender" : "pregnant",
	"age_lower" : 14,
	"age_upper" : 18,
	"adequate_intake" : 920,
	"upper_limit" : 2300,
	"units" : "mg",
	"class" : "micronutrient"
},
{
	"nutrient" : "sodium_na",
	"gender" : "pregnant",
	"age_lower" : 19,
	"age_upper" : 30,
	"adequate_intake" : 920,
	"upper_limit" : 2300,
	"units" : "mg",
	"class" : "micronutrient"
},
{
	"nutrient" : "sodium_na",
	"gender" : "pregnant",
	"age_lower" : 31,
	"age_upper" : 50,
	"adequate_intake" : 920,
	"upper_limit" : 2300,
	"units" : "mg",
	"class" : "micronutrient"
},
{
	"nutrient" : "sodium_na",
	"gender" : "lactation",
	"age_lower" : 14,
	"age_upper" : 18,
	"adequate_intake" : 920,
	"upper_limit" : 2300,
	"units" : "mg",
	"class" : "micronutrient"
},
{
	"nutrient" : "sodium_na",
	"gender" : "lactation",
	"age_lower" : 19,
	"age_upper" : 30,
	"adequate_intake" : 920,
	"upper_limit" : 2300,
	"units" : "mg",
	"class" : "micronutrient"
},
{
	"nutrient" : "sodium_na",
	"gender" : "lactation",
	"age_lower" : 31,
	"age_upper" : 50,
	"adequate_intake" : 920,
	"upper_limit" : 2300,
	"units" : "mg",
	"class" : "micronutrient"
},
{
	"nutrient" : "vitamin_e",
	"gender" : "M",
	"age_lower" : 0,
	"age_upper" : 0.5,
	"adequate_intake" : 4,
	"upper_limit" : "",
	"units" : "mg",
	"class" : "micronutrient"
},
{
	"nutrient" : "vitamin_e",
	"gender" : "M",
	"age_lower" : 0.5,
	"age_upper" : 1,
	"adequate_intake" : 5,
	"upper_limit" : "",
	"units" : "mg",
	"class" : "micronutrient"
},
{
	"nutrient" : "vitamin_e",
	"gender" : "F",
	"age_lower" : 0,
	"age_upper" : 0.5,
	"adequate_intake" : 4,
	"upper_limit" : "",
	"units" : "mg",
	"class" : "micronutrient"
},
{
	"nutrient" : "vitamin_e",
	"gender" : "F",
	"age_lower" : 0.5,
	"age_upper" : 1,
	"adequate_intake" : 5,
	"upper_limit" : "",
	"units" : "mg",
	"class" : "micronutrient"
},
{
	"nutrient" : "vitamin_e",
	"gender" : "M",
	"age_lower" : 1,
	"age_upper" : 3,
	"adequate_intake" : 5,
	"upper_limit" : 70,
	"units" : "mg",
	"class" : "micronutrient"
},
{
	"nutrient" : "vitamin_e",
	"gender" : "M",
	"age_lower" : 4,
	"age_upper" : 8,
	"adequate_intake" : 6,
	"upper_limit" : 100,
	"units" : "mg",
	"class" : "micronutrient"
},
{
	"nutrient" : "vitamin_e",
	"gender" : "F",
	"age_lower" : 1,
	"age_upper" : 3,
	"adequate_intake" : 5,
	"upper_limit" : 70,
	"units" : "mg",
	"class" : "micronutrient"
},
{
	"nutrient" : "vitamin_e",
	"gender" : "F",
	"age_lower" : 4,
	"age_upper" : 8,
	"adequate_intake" : 6,
	"upper_limit" : 100,
	"units" : "mg",
	"class" : "micronutrient"
},
{
	"nutrient" : "vitamin_e",
	"gender" : "M",
	"age_lower" : 9,
	"age_upper" : 13,
	"adequate_intake" : 9,
	"upper_limit" : 180,
	"units" : "mg",
	"class" : "micronutrient"
},
{
	"nutrient" : "vitamin_e",
	"gender" : "M",
	"age_lower" : 14,
	"age_upper" : 18,
	"adequate_intake" : 10,
	"upper_limit" : 250,
	"units" : "mg",
	"class" : "micronutrient"
},
{
	"nutrient" : "vitamin_e",
	"gender" : "F",
	"age_lower" : 9,
	"age_upper" : 13,
	"adequate_intake" : 8,
	"upper_limit" : 180,
	"units" : "mg",
	"class" : "micronutrient"
},
{
	"nutrient" : "vitamin_e",
	"gender" : "F",
	"age_lower" : 14,
	"age_upper" : 18,
	"adequate_intake" : 8,
	"upper_limit" : 250,
	"units" : "mg",
	"class" : "micronutrient"
},
{
	"nutrient" : "vitamin_e",
	"gender" : "M",
	"age_lower" : 19,
	"age_upper" : 30,
	"adequate_intake" : 10,
	"upper_limit" : 300,
	"units" : "mg",
	"class" : "micronutrient"
},
{
	"nutrient" : "vitamin_e",
	"gender" : "M",
	"age_lower" : 31,
	"age_upper" : 50,
	"adequate_intake" : 10,
	"upper_limit" : 300,
	"units" : "mg",
	"class" : "micronutrient"
},
{
	"nutrient" : "vitamin_e",
	"gender" : "M",
	"age_lower" : 51,
	"age_upper" : 70,
	"adequate_intake" : 10,
	"upper_limit" : 300,
	"units" : "mg",
	"class" : "micronutrient"
},
{
	"nutrient" : "vitamin_e",
	"gender" : "M",
	"age_lower" : 71,
	"age_upper" : 200,
	"adequate_intake" : 10,
	"upper_limit" : 300,
	"units" : "mg",
	"class" : "micronutrient"
},
{
	"nutrient" : "vitamin_e",
	"gender" : "F",
	"age_lower" : 19,
	"age_upper" : 30,
	"adequate_intake" : 7,
	"upper_limit" : 300,
	"units" : "mg",
	"class" : "micronutrient"
},
{
	"nutrient" : "vitamin_e",
	"gender" : "F",
	"age_lower" : 31,
	"age_upper" : 50,
	"adequate_intake" : 7,
	"upper_limit" : 300,
	"units" : "mg",
	"class" : "micronutrient"
},
{
	"nutrient" : "vitamin_e",
	"gender" : "F",
	"age_lower" : 51,
	"age_upper" : 70,
	"adequate_intake" : 7,
	"upper_limit" : 300,
	"units" : "mg",
	"class" : "micronutrient"
},
{
	"nutrient" : "vitamin_e",
	"gender" : "F",
	"age_lower" : 71,
	"age_upper" : 200,
	"adequate_intake" : 7,
	"upper_limit" : 300,
	"units" : "mg",
	"class" : "micronutrient"
},
{
	"nutrient" : "vitamin_e",
	"gender" : "pregnant",
	"age_lower" : 14,
	"age_upper" : 18,
	"adequate_intake" : 8,
	"upper_limit" : 300,
	"units" : "mg",
	"class" : "micronutrient"
},
{
	"nutrient" : "vitamin_e",
	"gender" : "pregnant",
	"age_lower" : 19,
	"age_upper" : 30,
	"adequate_intake" : 7,
	"upper_limit" : 300,
	"units" : "mg",
	"class" : "micronutrient"
},
{
	"nutrient" : "vitamin_e",
	"gender" : "pregnant",
	"age_lower" : 31,
	"age_upper" : 50,
	"adequate_intake" : 7,
	"upper_limit" : 300,
	"units" : "mg",
	"class" : "micronutrient"
},
{
	"nutrient" : "vitamin_e",
	"gender" : "lactation",
	"age_lower" : 14,
	"age_upper" : 18,
	"adequate_intake" : 12,
	"upper_limit" : 300,
	"units" : "mg",
	"class" : "micronutrient"
},
{
	"nutrient" : "vitamin_e",
	"gender" : "lactation",
	"age_lower" : 19,
	"age_upper" : 30,
	"adequate_intake" : 11,
	"upper_limit" : 300,
	"units" : "mg",
	"class" : "micronutrient"
},
{
	"nutrient" : "vitamin_e",
	"gender" : "lactation",
	"age_lower" : 31,
	"age_upper" : 50,
	"adequate_intake" : 11,
	"upper_limit" : 300,
	"units" : "mg",
	"class" : "micronutrient"
},
{
	"nutrient" : "calcium_ca",
	"gender" : "M",
	"age_lower" : 0,
	"age_upper" : 1,
	"estimated_average_requirement" : 210,
	"recommended_dietary_intake" : "",
	"upper_limit" : "",
	"units" : "mg",
	"class" : "micronutrient"
},
{
	"nutrient" : "calcium_ca",
	"gender" : "M",
	"age_lower" : 1,
	"age_upper" : 1,
	"estimated_average_requirement" : 270,
	"recommended_dietary_intake" : "",
	"upper_limit" : "",
	"units" : "mg",
	"class" : "micronutrient"
},
{
	"nutrient" : "calcium_ca",
	"gender" : "F",
	"age_lower" : 0,
	"age_upper" : 1,
	"estimated_average_requirement" : 210,
	"recommended_dietary_intake" : "",
	"upper_limit" : "",
	"units" : "mg",
	"class" : "micronutrient"
},
{
	"nutrient" : "calcium_ca",
	"gender" : "F",
	"age_lower" : 1,
	"age_upper" : 1,
	"estimated_average_requirement" : 270,
	"recommended_dietary_intake" : "",
	"upper_limit" : "",
	"units" : "mg",
	"class" : "micronutrient"
},
{
	"nutrient" : "calcium_ca",
	"gender" : "M",
	"age_lower" : 1,
	"age_upper" : 3,
	"estimated_average_requirement" : 360,
	"recommended_dietary_intake" : 500,
	"upper_limit" : 2500,
	"units" : "mg",
	"class" : "micronutrient"
},
{
	"nutrient" : "calcium_ca",
	"gender" : "M",
	"age_lower" : 4,
	"age_upper" : 8,
	"estimated_average_requirement" : 520,
	"recommended_dietary_intake" : 700,
	"upper_limit" : 2500,
	"units" : "mg",
	"class" : "micronutrient"
},
{
	"nutrient" : "calcium_ca",
	"gender" : "F",
	"age_lower" : 1,
	"age_upper" : 3,
	"estimated_average_requirement" : 360,
	"recommended_dietary_intake" : 500,
	"upper_limit" : 2500,
	"units" : "mg",
	"class" : "micronutrient"
},
{
	"nutrient" : "calcium_ca",
	"gender" : "F",
	"age_lower" : 4,
	"age_upper" : 8,
	"estimated_average_requirement" : 520,
	"recommended_dietary_intake" : 700,
	"upper_limit" : 2500,
	"units" : "mg",
	"class" : "micronutrient"
},
{
	"nutrient" : "calcium_ca",
	"gender" : "M",
	"age_lower" : 9,
	"age_upper" : 13,
	"estimated_average_requirement" : 1050,
	"recommended_dietary_intake" : 1300,
	"upper_limit" : 2500,
	"units" : "mg",
	"class" : "micronutrient"
},
{
	"nutrient" : "calcium_ca",
	"gender" : "M",
	"age_lower" : 14,
	"age_upper" : 18,
	"estimated_average_requirement" : 1050,
	"recommended_dietary_intake" : 1300,
	"upper_limit" : 2500,
	"units" : "mg",
	"class" : "micronutrient"
},
{
	"nutrient" : "calcium_ca",
	"gender" : "F",
	"age_lower" : 9,
	"age_upper" : 13,
	"estimated_average_requirement" : 1050,
	"recommended_dietary_intake" : 1300,
	"upper_limit" : 2500,
	"units" : "mg",
	"class" : "micronutrient"
},
{
	"nutrient" : "calcium_ca",
	"gender" : "F",
	"age_lower" : 14,
	"age_upper" : 18,
	"estimated_average_requirement" : 1050,
	"recommended_dietary_intake" : 1300,
	"upper_limit" : 2500,
	"units" : "mg",
	"class" : "micronutrient"
},
{
	"nutrient" : "calcium_ca",
	"gender" : "M",
	"age_lower" : 19,
	"age_upper" : 30,
	"estimated_average_requirement" : 840,
	"recommended_dietary_intake" : 1000,
	"upper_limit" : 2500,
	"units" : "mg",
	"class" : "micronutrient"
},
{
	"nutrient" : "calcium_ca",
	"gender" : "M",
	"age_lower" : 31,
	"age_upper" : 50,
	"estimated_average_requirement" : 840,
	"recommended_dietary_intake" : 1000,
	"upper_limit" : 2500,
	"units" : "mg",
	"class" : "micronutrient"
},
{
	"nutrient" : "calcium_ca",
	"gender" : "M",
	"age_lower" : 51,
	"age_upper" : 70,
	"estimated_average_requirement" : 840,
	"recommended_dietary_intake" : 1000,
	"upper_limit" : 2500,
	"units" : "mg",
	"class" : "micronutrient"
},
{
	"nutrient" : "calcium_ca",
	"gender" : "M",
	"age_lower" : 71,
	"age_upper" : 200,
	"estimated_average_requirement" : 1100,
	"recommended_dietary_intake" : 1300,
	"upper_limit" : 2500,
	"units" : "mg",
	"class" : "micronutrient"
},
{
	"nutrient" : "calcium_ca",
	"gender" : "F",
	"age_lower" : 19,
	"age_upper" : 30,
	"estimated_average_requirement" : 840,
	"recommended_dietary_intake" : 1000,
	"upper_limit" : 2500,
	"units" : "mg",
	"class" : "micronutrient"
},
{
	"nutrient" : "calcium_ca",
	"gender" : "F",
	"age_lower" : 31,
	"age_upper" : 50,
	"estimated_average_requirement" : 840,
	"recommended_dietary_intake" : 1000,
	"upper_limit" : 2500,
	"units" : "mg",
	"class" : "micronutrient"
},
{
	"nutrient" : "calcium_ca",
	"gender" : "F",
	"age_lower" : 51,
	"age_upper" : 70,
	"estimated_average_requirement" : 1100,
	"recommended_dietary_intake" : 1300,
	"upper_limit" : 2500,
	"units" : "mg",
	"class" : "micronutrient"
},
{
	"nutrient" : "calcium_ca",
	"gender" : "F",
	"age_lower" : 71,
	"age_upper" : 200,
	"estimated_average_requirement" : 1100,
	"recommended_dietary_intake" : 1300,
	"upper_limit" : 2500,
	"units" : "mg",
	"class" : "micronutrient"
},
{
	"nutrient" : "calcium_ca",
	"gender" : "pregnant",
	"age_lower" : 14,
	"age_upper" : 18,
	"estimated_average_requirement" : 1050,
	"recommended_dietary_intake" : 1300,
	"upper_limit" : 2500,
	"units" : "mg",
	"class" : "micronutrient"
},
{
	"nutrient" : "calcium_ca",
	"gender" : "pregnant",
	"age_lower" : 19,
	"age_upper" : 30,
	"estimated_average_requirement" : 840,
	"recommended_dietary_intake" : 1000,
	"upper_limit" : 2500,
	"units" : "mg",
	"class" : "micronutrient"
},
{
	"nutrient" : "calcium_ca",
	"gender" : "pregnant",
	"age_lower" : 31,
	"age_upper" : 50,
	"estimated_average_requirement" : 840,
	"recommended_dietary_intake" : 1000,
	"upper_limit" : 2500,
	"units" : "mg",
	"class" : "micronutrient"
},
{
	"nutrient" : "calcium_ca",
	"gender" : "lactation",
	"age_lower" : 14,
	"age_upper" : 18,
	"estimated_average_requirement" : 1050,
	"recommended_dietary_intake" : 1300,
	"upper_limit" : 2500,
	"units" : "mg",
	"class" : "micronutrient"
},
{
	"nutrient" : "calcium_ca",
	"gender" : "lactation",
	"age_lower" : 19,
	"age_upper" : 30,
	"estimated_average_requirement" : 840,
	"recommended_dietary_intake" : 1000,
	"upper_limit" : 2500,
	"units" : "mg",
	"class" : "micronutrient"
},
{
	"nutrient" : "calcium_ca",
	"gender" : "lactation",
	"age_lower" : 31,
	"age_upper" : 50,
	"estimated_average_requirement" : 840,
	"recommended_dietary_intake" : 1000,
	"upper_limit" : 2500,
	"units" : "mg",
	"class" : "micronutrient"
},
{
	"nutrient" : "iron_fe",
	"gender" : "M",
	"age_lower" : 0,
	"age_upper" : 0.5,
	"estimated_average_requirement" : 7,
	"recommended_dietary_intake" : 11,
	"upper_limit" : 20,
	"units" : "mg",
	"class" : "micronutrient"
},
{
	"nutrient" : "iron_fe",
	"gender" : "M",
	"age_lower" : 0.5,
	"age_upper" : 1,
	"estimated_average_requirement" : 7,
	"recommended_dietary_intake" : 11,
	"upper_limit" : 20,
	"units" : "mg",
	"class" : "micronutrient"
},
{
	"nutrient" : "iron_fe",
	"gender" : "F",
	"age_lower" : 0,
	"age_upper" : 0.5,
	"estimated_average_requirement" : 7,
	"recommended_dietary_intake" : 11,
	"upper_limit" : 20,
	"units" : "mg",
	"class" : "micronutrient"
},
{
	"nutrient" : "iron_fe",
	"gender" : "F",
	"age_lower" : 0.5,
	"age_upper" : 1,
	"estimated_average_requirement" : 7,
	"recommended_dietary_intake" : 11,
	"upper_limit" : 20,
	"units" : "mg",
	"class" : "micronutrient"
},
{
	"nutrient" : "iron_fe",
	"gender" : "M",
	"age_lower" : 1,
	"age_upper" : 3,
	"estimated_average_requirement" : 4,
	"recommended_dietary_intake" : 9,
	"upper_limit" : 20,
	"units" : "mg",
	"class" : "micronutrient"
},
{
	"nutrient" : "iron_fe",
	"gender" : "M",
	"age_lower" : 4,
	"age_upper" : 8,
	"estimated_average_requirement" : 4,
	"recommended_dietary_intake" : 10,
	"upper_limit" : 40,
	"units" : "mg",
	"class" : "micronutrient"
},
{
	"nutrient" : "iron_fe",
	"gender" : "F",
	"age_lower" : 1,
	"age_upper" : 3,
	"estimated_average_requirement" : 4,
	"recommended_dietary_intake" : 9,
	"upper_limit" : 20,
	"units" : "mg",
	"class" : "micronutrient"
},
{
	"nutrient" : "iron_fe",
	"gender" : "F",
	"age_lower" : 4,
	"age_upper" : 8,
	"estimated_average_requirement" : 4,
	"recommended_dietary_intake" : 10,
	"upper_limit" : 40,
	"units" : "mg",
	"class" : "micronutrient"
},
{
	"nutrient" : "iron_fe",
	"gender" : "M",
	"age_lower" : 9,
	"age_upper" : 13,
	"estimated_average_requirement" : 6,
	"recommended_dietary_intake" : 8,
	"upper_limit" : 40,
	"units" : "mg",
	"class" : "micronutrient"
},
{
	"nutrient" : "iron_fe",
	"gender" : "M",
	"age_lower" : 14,
	"age_upper" : 18,
	"estimated_average_requirement" : 8,
	"recommended_dietary_intake" : 11,
	"upper_limit" : 45,
	"units" : "mg",
	"class" : "micronutrient"
},
{
	"nutrient" : "iron_fe",
	"gender" : "F",
	"age_lower" : 9,
	"age_upper" : 13,
	"estimated_average_requirement" : 6,
	"recommended_dietary_intake" : 8,
	"upper_limit" : 40,
	"units" : "mg",
	"class" : "micronutrient"
},
{
	"nutrient" : "iron_fe",
	"gender" : "F",
	"age_lower" : 14,
	"age_upper" : 18,
	"estimated_average_requirement" : 8,
	"recommended_dietary_intake" : 15,
	"upper_limit" : 45,
	"units" : "mg",
	"class" : "micronutrient"
},
{
	"nutrient" : "iron_fe",
	"gender" : "M",
	"age_lower" : 19,
	"age_upper" : 30,
	"estimated_average_requirement" : 6,
	"recommended_dietary_intake" : 8,
	"upper_limit" : 45,
	"units" : "mg",
	"class" : "micronutrient"
},
{
	"nutrient" : "iron_fe",
	"gender" : "M",
	"age_lower" : 31,
	"age_upper" : 50,
	"estimated_average_requirement" : 6,
	"recommended_dietary_intake" : 8,
	"upper_limit" : 45,
	"units" : "mg",
	"class" : "micronutrient"
},
{
	"nutrient" : "iron_fe",
	"gender" : "M",
	"age_lower" : 51,
	"age_upper" : 70,
	"estimated_average_requirement" : 6,
	"recommended_dietary_intake" : 8,
	"upper_limit" : 45,
	"units" : "mg",
	"class" : "micronutrient"
},
{
	"nutrient" : "iron_fe",
	"gender" : "M",
	"age_lower" : 71,
	"age_upper" : 200,
	"estimated_average_requirement" : 6,
	"recommended_dietary_intake" : 8,
	"upper_limit" : 45,
	"units" : "mg",
	"class" : "micronutrient"
},
{
	"nutrient" : "iron_fe",
	"gender" : "F",
	"age_lower" : 19,
	"age_upper" : 30,
	"estimated_average_requirement" : 8,
	"recommended_dietary_intake" : 18,
	"upper_limit" : 45,
	"units" : "mg",
	"class" : "micronutrient"
},
{
	"nutrient" : "iron_fe",
	"gender" : "F",
	"age_lower" : 31,
	"age_upper" : 50,
	"estimated_average_requirement" : 8,
	"recommended_dietary_intake" : 18,
	"upper_limit" : 45,
	"units" : "mg",
	"class" : "micronutrient"
},
{
	"nutrient" : "iron_fe",
	"gender" : "F",
	"age_lower" : 51,
	"age_upper" : 70,
	"estimated_average_requirement" : 5,
	"recommended_dietary_intake" : 8,
	"upper_limit" : 45,
	"units" : "mg",
	"class" : "micronutrient"
},
{
	"nutrient" : "iron_fe",
	"gender" : "F",
	"age_lower" : 71,
	"age_upper" : 200,
	"estimated_average_requirement" : 5,
	"recommended_dietary_intake" : 8,
	"upper_limit" : 45,
	"units" : "mg",
	"class" : "micronutrient"
},
{
	"nutrient" : "iron_fe",
	"gender" : "pregnant",
	"age_lower" : 14,
	"age_upper" : 18,
	"estimated_average_requirement" : 23,
	"recommended_dietary_intake" : 27,
	"upper_limit" : 45,
	"units" : "mg",
	"class" : "micronutrient"
},
{
	"nutrient" : "iron_fe",
	"gender" : "pregnant",
	"age_lower" : 19,
	"age_upper" : 30,
	"estimated_average_requirement" : 22,
	"recommended_dietary_intake" : 27,
	"upper_limit" : 45,
	"units" : "mg",
	"class" : "micronutrient"
},
{
	"nutrient" : "iron_fe",
	"gender" : "pregnant",
	"age_lower" : 31,
	"age_upper" : 50,
	"estimated_average_requirement" : 22,
	"recommended_dietary_intake" : 27,
	"upper_limit" : 45,
	"units" : "mg",
	"class" : "micronutrient"
},
{
	"nutrient" : "iron_fe",
	"gender" : "lactation",
	"age_lower" : 14,
	"age_upper" : 18,
	"estimated_average_requirement" : 7,
	"recommended_dietary_intake" : 10,
	"upper_limit" : 45,
	"units" : "mg",
	"class" : "micronutrient"
},
{
	"nutrient" : "iron_fe",
	"gender" : "lactation",
	"age_lower" : 19,
	"age_upper" : 30,
	"estimated_average_requirement" : 6.5,
	"recommended_dietary_intake" : 9,
	"upper_limit" : 45,
	"units" : "mg",
	"class" : "micronutrient"
},
{
	"nutrient" : "iron_fe",
	"gender" : "lactation",
	"age_lower" : 31,
	"age_upper" : 50,
	"estimated_average_requirement" : 6.5,
	"recommended_dietary_intake" : 9,
	"upper_limit" : 45,
	"units" : "mg",
	"class" : "micronutrient"
},
{
	"nutrient" : "magnesium_mg",
	"gender" : "M",
	"age_lower" : 0,
	"age_upper" : 0.5,
	"estimated_average_requirement" : 30,
	"recommended_dietary_intake" : "",
	"upper_limit" : "",
	"units" : "mg",
	"class" : "micronutrient"
},
{
	"nutrient" : "magnesium_mg",
	"gender" : "M",
	"age_lower" : 0.5,
	"age_upper" : 1,
	"estimated_average_requirement" : 75,
	"recommended_dietary_intake" : "",
	"upper_limit" : "",
	"units" : "mg",
	"class" : "micronutrient"
},
{
	"nutrient" : "magnesium_mg",
	"gender" : "F",
	"age_lower" : 0,
	"age_upper" : 0.5,
	"estimated_average_requirement" : 30,
	"recommended_dietary_intake" : "",
	"upper_limit" : "",
	"units" : "mg",
	"class" : "micronutrient"
},
{
	"nutrient" : "magnesium_mg",
	"gender" : "F",
	"age_lower" : 0.5,
	"age_upper" : 1,
	"estimated_average_requirement" : 75,
	"recommended_dietary_intake" : "",
	"upper_limit" : "",
	"units" : "mg",
	"class" : "micronutrient"
},
{
	"nutrient" : "magnesium_mg",
	"gender" : "M",
	"age_lower" : 1,
	"age_upper" : 3,
	"estimated_average_requirement" : 65,
	"recommended_dietary_intake" : 80,
	"upper_limit" : 65,
	"units" : "mg",
	"class" : "micronutrient"
},
{
	"nutrient" : "magnesium_mg",
	"gender" : "M",
	"age_lower" : 4,
	"age_upper" : 8,
	"estimated_average_requirement" : 110,
	"recommended_dietary_intake" : 130,
	"upper_limit" : 110,
	"units" : "mg",
	"class" : "micronutrient"
},
{
	"nutrient" : "magnesium_mg",
	"gender" : "F",
	"age_lower" : 1,
	"age_upper" : 3,
	"estimated_average_requirement" : 65,
	"recommended_dietary_intake" : 80,
	"upper_limit" : 65,
	"units" : "mg",
	"class" : "micronutrient"
},
{
	"nutrient" : "magnesium_mg",
	"gender" : "F",
	"age_lower" : 4,
	"age_upper" : 8,
	"estimated_average_requirement" : 110,
	"recommended_dietary_intake" : 130,
	"upper_limit" : 110,
	"units" : "mg",
	"class" : "micronutrient"
},
{
	"nutrient" : "magnesium_mg",
	"gender" : "M",
	"age_lower" : 9,
	"age_upper" : 13,
	"estimated_average_requirement" : 200,
	"recommended_dietary_intake" : 240,
	"upper_limit" : 350,
	"units" : "mg",
	"class" : "micronutrient"
},
{
	"nutrient" : "magnesium_mg",
	"gender" : "M",
	"age_lower" : 14,
	"age_upper" : 18,
	"estimated_average_requirement" : 340,
	"recommended_dietary_intake" : 410,
	"upper_limit" : 350,
	"units" : "mg",
	"class" : "micronutrient"
},
{
	"nutrient" : "magnesium_mg",
	"gender" : "F",
	"age_lower" : 9,
	"age_upper" : 13,
	"estimated_average_requirement" : 200,
	"recommended_dietary_intake" : 240,
	"upper_limit" : 350,
	"units" : "mg",
	"class" : "micronutrient"
},
{
	"nutrient" : "magnesium_mg",
	"gender" : "F",
	"age_lower" : 14,
	"age_upper" : 18,
	"estimated_average_requirement" : 300,
	"recommended_dietary_intake" : 360,
	"upper_limit" : 350,
	"units" : "mg",
	"class" : "micronutrient"
},
{
	"nutrient" : "magnesium_mg",
	"gender" : "M",
	"age_lower" : 19,
	"age_upper" : 30,
	"estimated_average_requirement" : 330,
	"recommended_dietary_intake" : 400,
	"upper_limit" : 350,
	"units" : "mg",
	"class" : "micronutrient"
},
{
	"nutrient" : "magnesium_mg",
	"gender" : "M",
	"age_lower" : 31,
	"age_upper" : 50,
	"estimated_average_requirement" : 350,
	"recommended_dietary_intake" : 420,
	"upper_limit" : 350,
	"units" : "mg",
	"class" : "micronutrient"
},
{
	"nutrient" : "magnesium_mg",
	"gender" : "M",
	"age_lower" : 51,
	"age_upper" : 70,
	"estimated_average_requirement" : 350,
	"recommended_dietary_intake" : 420,
	"upper_limit" : 350,
	"units" : "mg",
	"class" : "micronutrient"
},
{
	"nutrient" : "magnesium_mg",
	"gender" : "M",
	"age_lower" : 71,
	"age_upper" : 200,
	"estimated_average_requirement" : 350,
	"recommended_dietary_intake" : 420,
	"upper_limit" : 350,
	"units" : "mg",
	"class" : "micronutrient"
},
{
	"nutrient" : "magnesium_mg",
	"gender" : "F",
	"age_lower" : 19,
	"age_upper" : 30,
	"estimated_average_requirement" : 255,
	"recommended_dietary_intake" : 310,
	"upper_limit" : 350,
	"units" : "mg",
	"class" : "micronutrient"
},
{
	"nutrient" : "magnesium_mg",
	"gender" : "F",
	"age_lower" : 31,
	"age_upper" : 50,
	"estimated_average_requirement" : 265,
	"recommended_dietary_intake" : 320,
	"upper_limit" : 350,
	"units" : "mg",
	"class" : "micronutrient"
},
{
	"nutrient" : "magnesium_mg",
	"gender" : "F",
	"age_lower" : 51,
	"age_upper" : 70,
	"estimated_average_requirement" : 265,
	"recommended_dietary_intake" : 320,
	"upper_limit" : 350,
	"units" : "mg",
	"class" : "micronutrient"
},
{
	"nutrient" : "magnesium_mg",
	"gender" : "F",
	"age_lower" : 71,
	"age_upper" : 200,
	"estimated_average_requirement" : 265,
	"recommended_dietary_intake" : 320,
	"upper_limit" : 350,
	"units" : "mg",
	"class" : "micronutrient"
},
{
	"nutrient" : "magnesium_mg",
	"gender" : "pregnant",
	"age_lower" : 14,
	"age_upper" : 18,
	"estimated_average_requirement" : 335,
	"recommended_dietary_intake" : 400,
	"upper_limit" : 350,
	"units" : "mg",
	"class" : "micronutrient"
},
{
	"nutrient" : "magnesium_mg",
	"gender" : "pregnant",
	"age_lower" : 19,
	"age_upper" : 30,
	"estimated_average_requirement" : 290,
	"recommended_dietary_intake" : 350,
	"upper_limit" : 350,
	"units" : "mg",
	"class" : "micronutrient"
},
{
	"nutrient" : "magnesium_mg",
	"gender" : "pregnant",
	"age_lower" : 31,
	"age_upper" : 50,
	"estimated_average_requirement" : 300,
	"recommended_dietary_intake" : 360,
	"upper_limit" : 350,
	"units" : "mg",
	"class" : "micronutrient"
},
{
	"nutrient" : "magnesium_mg",
	"gender" : "lactation",
	"age_lower" : 14,
	"age_upper" : 18,
	"estimated_average_requirement" : 300,
	"recommended_dietary_intake" : 360,
	"upper_limit" : 350,
	"units" : "mg",
	"class" : "micronutrient"
},
{
	"nutrient" : "magnesium_mg",
	"gender" : "lactation",
	"age_lower" : 19,
	"age_upper" : 30,
	"estimated_average_requirement" : 255,
	"recommended_dietary_intake" : 310,
	"upper_limit" : 350,
	"units" : "mg",
	"class" : "micronutrient"
},
{
	"nutrient" : "magnesium_mg",
	"gender" : "lactation",
	"age_lower" : 31,
	"age_upper" : 50,
	"estimated_average_requirement" : 265,
	"recommended_dietary_intake" : 320,
	"upper_limit" : 350,
	"units" : "mg",
	"class" : "micronutrient"
},
{
	"nutrient" : "niacin_b3",
	"gender" : "M",
	"age_lower" : 0,
	"age_upper" : 0.5,
	"estimated_average_requirement" : 2,
	"recommended_dietary_intake" : "",
	"upper_limit" : "",
	"units" : "mg",
	"class" : "micronutrient"
},
{
	"nutrient" : "niacin_b3",
	"gender" : "M",
	"age_lower" : 0.5,
	"age_upper" : 1,
	"estimated_average_requirement" : 4,
	"recommended_dietary_intake" : "",
	"upper_limit" : "",
	"units" : "mg",
	"class" : "micronutrient"
},
{
	"nutrient" : "niacin_b3",
	"gender" : "F",
	"age_lower" : 0,
	"age_upper" : 0.5,
	"estimated_average_requirement" : 2,
	"recommended_dietary_intake" : "",
	"upper_limit" : "",
	"units" : "mg",
	"class" : "micronutrient"
},
{
	"nutrient" : "niacin_b3",
	"gender" : "F",
	"age_lower" : 0.5,
	"age_upper" : 1,
	"estimated_average_requirement" : 4,
	"recommended_dietary_intake" : "",
	"upper_limit" : "",
	"units" : "mg",
	"class" : "micronutrient"
},
{
	"nutrient" : "niacin_b3",
	"gender" : "M",
	"age_lower" : 1,
	"age_upper" : 3,
	"estimated_average_requirement" : 5,
	"recommended_dietary_intake" : 6,
	"upper_limit" : 10,
	"units" : "mg",
	"class" : "micronutrient"
},
{
	"nutrient" : "niacin_b3",
	"gender" : "M",
	"age_lower" : 4,
	"age_upper" : 8,
	"estimated_average_requirement" : 6,
	"recommended_dietary_intake" : 8,
	"upper_limit" : 15,
	"units" : "mg",
	"class" : "micronutrient"
},
{
	"nutrient" : "niacin_b3",
	"gender" : "F",
	"age_lower" : 1,
	"age_upper" : 3,
	"estimated_average_requirement" : 5,
	"recommended_dietary_intake" : 6,
	"upper_limit" : 10,
	"units" : "mg",
	"class" : "micronutrient"
},
{
	"nutrient" : "niacin_b3",
	"gender" : "F",
	"age_lower" : 4,
	"age_upper" : 8,
	"estimated_average_requirement" : 6,
	"recommended_dietary_intake" : 8,
	"upper_limit" : 15,
	"units" : "mg",
	"class" : "micronutrient"
},
{
	"nutrient" : "niacin_b3",
	"gender" : "M",
	"age_lower" : 9,
	"age_upper" : 13,
	"estimated_average_requirement" : 9,
	"recommended_dietary_intake" : 12,
	"upper_limit" : 20,
	"units" : "mg",
	"class" : "micronutrient"
},
{
	"nutrient" : "niacin_b3",
	"gender" : "M",
	"age_lower" : 14,
	"age_upper" : 18,
	"estimated_average_requirement" : 12,
	"recommended_dietary_intake" : 16,
	"upper_limit" : 30,
	"units" : "mg",
	"class" : "micronutrient"
},
{
	"nutrient" : "niacin_b3",
	"gender" : "F",
	"age_lower" : 9,
	"age_upper" : 13,
	"estimated_average_requirement" : 9,
	"recommended_dietary_intake" : 12,
	"upper_limit" : 20,
	"units" : "mg",
	"class" : "micronutrient"
},
{
	"nutrient" : "niacin_b3",
	"gender" : "F",
	"age_lower" : 14,
	"age_upper" : 18,
	"estimated_average_requirement" : 11,
	"recommended_dietary_intake" : 14,
	"upper_limit" : 30,
	"units" : "mg",
	"class" : "micronutrient"
},
{
	"nutrient" : "niacin_b3",
	"gender" : "M",
	"age_lower" : 19,
	"age_upper" : 30,
	"estimated_average_requirement" : 12,
	"recommended_dietary_intake" : 16,
	"upper_limit" : 35,
	"units" : "mg",
	"class" : "micronutrient"
},
{
	"nutrient" : "niacin_b3",
	"gender" : "M",
	"age_lower" : 31,
	"age_upper" : 50,
	"estimated_average_requirement" : 12,
	"recommended_dietary_intake" : 16,
	"upper_limit" : 35,
	"units" : "mg",
	"class" : "micronutrient"
},
{
	"nutrient" : "niacin_b3",
	"gender" : "M",
	"age_lower" : 51,
	"age_upper" : 70,
	"estimated_average_requirement" : 12,
	"recommended_dietary_intake" : 16,
	"upper_limit" : 35,
	"units" : "mg",
	"class" : "micronutrient"
},
{
	"nutrient" : "niacin_b3",
	"gender" : "M",
	"age_lower" : 71,
	"age_upper" : 200,
	"estimated_average_requirement" : 12,
	"recommended_dietary_intake" : 16,
	"upper_limit" : 35,
	"units" : "mg",
	"class" : "micronutrient"
},
{
	"nutrient" : "niacin_b3",
	"gender" : "F",
	"age_lower" : 19,
	"age_upper" : 30,
	"estimated_average_requirement" : 11,
	"recommended_dietary_intake" : 14,
	"upper_limit" : 35,
	"units" : "mg",
	"class" : "micronutrient"
},
{
	"nutrient" : "niacin_b3",
	"gender" : "F",
	"age_lower" : 31,
	"age_upper" : 50,
	"estimated_average_requirement" : 11,
	"recommended_dietary_intake" : 14,
	"upper_limit" : 35,
	"units" : "mg",
	"class" : "micronutrient"
},
{
	"nutrient" : "niacin_b3",
	"gender" : "F",
	"age_lower" : 51,
	"age_upper" : 70,
	"estimated_average_requirement" : 11,
	"recommended_dietary_intake" : 14,
	"upper_limit" : 35,
	"units" : "mg",
	"class" : "micronutrient"
},
{
	"nutrient" : "niacin_b3",
	"gender" : "F",
	"age_lower" : 71,
	"age_upper" : 200,
	"estimated_average_requirement" : 11,
	"recommended_dietary_intake" : 14,
	"upper_limit" : 35,
	"units" : "mg",
	"class" : "micronutrient"
},
{
	"nutrient" : "niacin_b3",
	"gender" : "pregnant",
	"age_lower" : 14,
	"age_upper" : 18,
	"estimated_average_requirement" : 14,
	"recommended_dietary_intake" : 18,
	"upper_limit" : 30,
	"units" : "mg",
	"class" : "micronutrient"
},
{
	"nutrient" : "niacin_b3",
	"gender" : "pregnant",
	"age_lower" : 19,
	"age_upper" : 30,
	"estimated_average_requirement" : 14,
	"recommended_dietary_intake" : 18,
	"upper_limit" : 35,
	"units" : "mg",
	"class" : "micronutrient"
},
{
	"nutrient" : "niacin_b3",
	"gender" : "pregnant",
	"age_lower" : 31,
	"age_upper" : 50,
	"estimated_average_requirement" : 14,
	"recommended_dietary_intake" : 18,
	"upper_limit" : 35,
	"units" : "mg",
	"class" : "micronutrient"
},
{
	"nutrient" : "niacin_b3",
	"gender" : "lactation",
	"age_lower" : 14,
	"age_upper" : 18,
	"estimated_average_requirement" : 13,
	"recommended_dietary_intake" : 17,
	"upper_limit" : 30,
	"units" : "mg",
	"class" : "micronutrient"
},
{
	"nutrient" : "niacin_b3",
	"gender" : "lactation",
	"age_lower" : 19,
	"age_upper" : 30,
	"estimated_average_requirement" : 13,
	"recommended_dietary_intake" : 17,
	"upper_limit" : 35,
	"units" : "mg",
	"class" : "micronutrient"
},
{
	"nutrient" : "niacin_b3",
	"gender" : "lactation",
	"age_lower" : 31,
	"age_upper" : 50,
	"estimated_average_requirement" : 13,
	"recommended_dietary_intake" : 17,
	"upper_limit" : 35,
	"units" : "mg",
	"class" : "micronutrient"
},
{
	"nutrient" : "phosphorus_p",
	"gender" : "M",
	"age_lower" : 0,
	"age_upper" : 1,
	"estimated_average_requirement" : 100,
	"recommended_dietary_intake" : "",
	"upper_limit" : "",
	"units" : "mg",
	"class" : "micronutrient"
},
{
	"nutrient" : "phosphorus_p",
	"gender" : "M",
	"age_lower" : 1,
	"age_upper" : 1,
	"estimated_average_requirement" : 275,
	"recommended_dietary_intake" : "",
	"upper_limit" : "",
	"units" : "mg",
	"class" : "micronutrient"
},
{
	"nutrient" : "phosphorus_p",
	"gender" : "F",
	"age_lower" : 0,
	"age_upper" : 1,
	"estimated_average_requirement" : 100,
	"recommended_dietary_intake" : "",
	"upper_limit" : "",
	"units" : "mg",
	"class" : "micronutrient"
},
{
	"nutrient" : "phosphorus_p",
	"gender" : "F",
	"age_lower" : 1,
	"age_upper" : 1,
	"estimated_average_requirement" : 275,
	"recommended_dietary_intake" : "",
	"upper_limit" : "",
	"units" : "mg",
	"class" : "micronutrient"
},
{
	"nutrient" : "phosphorus_p",
	"gender" : "M",
	"age_lower" : 1,
	"age_upper" : 3,
	"estimated_average_requirement" : 380,
	"recommended_dietary_intake" : 460,
	"upper_limit" : 3000,
	"units" : "mg",
	"class" : "micronutrient"
},
{
	"nutrient" : "phosphorus_p",
	"gender" : "M",
	"age_lower" : 4,
	"age_upper" : 8,
	"estimated_average_requirement" : 405,
	"recommended_dietary_intake" : 500,
	"upper_limit" : 3000,
	"units" : "mg",
	"class" : "micronutrient"
},
{
	"nutrient" : "phosphorus_p",
	"gender" : "F",
	"age_lower" : 1,
	"age_upper" : 3,
	"estimated_average_requirement" : 380,
	"recommended_dietary_intake" : 460,
	"upper_limit" : 3000,
	"units" : "mg",
	"class" : "micronutrient"
},
{
	"nutrient" : "phosphorus_p",
	"gender" : "F",
	"age_lower" : 4,
	"age_upper" : 8,
	"estimated_average_requirement" : 405,
	"recommended_dietary_intake" : 500,
	"upper_limit" : 3000,
	"units" : "mg",
	"class" : "micronutrient"
},
{
	"nutrient" : "phosphorus_p",
	"gender" : "M",
	"age_lower" : 9,
	"age_upper" : 13,
	"estimated_average_requirement" : 1055,
	"recommended_dietary_intake" : 1250,
	"upper_limit" : 4000,
	"units" : "mg",
	"class" : "micronutrient"
},
{
	"nutrient" : "phosphorus_p",
	"gender" : "M",
	"age_lower" : 14,
	"age_upper" : 18,
	"estimated_average_requirement" : 1055,
	"recommended_dietary_intake" : 1250,
	"upper_limit" : 4000,
	"units" : "mg",
	"class" : "micronutrient"
},
{
	"nutrient" : "phosphorus_p",
	"gender" : "F",
	"age_lower" : 9,
	"age_upper" : 13,
	"estimated_average_requirement" : 1055,
	"recommended_dietary_intake" : 1250,
	"upper_limit" : 4000,
	"units" : "mg",
	"class" : "micronutrient"
},
{
	"nutrient" : "phosphorus_p",
	"gender" : "F",
	"age_lower" : 14,
	"age_upper" : 18,
	"estimated_average_requirement" : 1055,
	"recommended_dietary_intake" : 1250,
	"upper_limit" : 4000,
	"units" : "mg",
	"class" : "micronutrient"
},
{
	"nutrient" : "phosphorus_p",
	"gender" : "M",
	"age_lower" : 19,
	"age_upper" : 30,
	"estimated_average_requirement" : 580,
	"recommended_dietary_intake" : 1000,
	"upper_limit" : 4000,
	"units" : "mg",
	"class" : "micronutrient"
},
{
	"nutrient" : "phosphorus_p",
	"gender" : "M",
	"age_lower" : 31,
	"age_upper" : 50,
	"estimated_average_requirement" : 580,
	"recommended_dietary_intake" : 1000,
	"upper_limit" : 4000,
	"units" : "mg",
	"class" : "micronutrient"
},
{
	"nutrient" : "phosphorus_p",
	"gender" : "M",
	"age_lower" : 51,
	"age_upper" : 70,
	"estimated_average_requirement" : 580,
	"recommended_dietary_intake" : 1000,
	"upper_limit" : 4000,
	"units" : "mg",
	"class" : "micronutrient"
},
{
	"nutrient" : "phosphorus_p",
	"gender" : "M",
	"age_lower" : 71,
	"age_upper" : 200,
	"estimated_average_requirement" : 580,
	"recommended_dietary_intake" : 1000,
	"upper_limit" : 3000,
	"units" : "mg",
	"class" : "micronutrient"
},
{
	"nutrient" : "phosphorus_p",
	"gender" : "F",
	"age_lower" : 19,
	"age_upper" : 30,
	"estimated_average_requirement" : 580,
	"recommended_dietary_intake" : 1000,
	"upper_limit" : 4000,
	"units" : "mg",
	"class" : "micronutrient"
},
{
	"nutrient" : "phosphorus_p",
	"gender" : "F",
	"age_lower" : 31,
	"age_upper" : 50,
	"estimated_average_requirement" : 580,
	"recommended_dietary_intake" : 1000,
	"upper_limit" : 4000,
	"units" : "mg",
	"class" : "micronutrient"
},
{
	"nutrient" : "phosphorus_p",
	"gender" : "F",
	"age_lower" : 51,
	"age_upper" : 70,
	"estimated_average_requirement" : 580,
	"recommended_dietary_intake" : 1000,
	"upper_limit" : 4000,
	"units" : "mg",
	"class" : "micronutrient"
},
{
	"nutrient" : "phosphorus_p",
	"gender" : "F",
	"age_lower" : 71,
	"age_upper" : 200,
	"estimated_average_requirement" : 580,
	"recommended_dietary_intake" : 1000,
	"upper_limit" : 3000,
	"units" : "mg",
	"class" : "micronutrient"
},
{
	"nutrient" : "phosphorus_p",
	"gender" : "pregnant",
	"age_lower" : 14,
	"age_upper" : 18,
	"estimated_average_requirement" : 1055,
	"recommended_dietary_intake" : 1250,
	"upper_limit" : 3500,
	"units" : "mg",
	"class" : "micronutrient"
},
{
	"nutrient" : "phosphorus_p",
	"gender" : "pregnant",
	"age_lower" : 19,
	"age_upper" : 30,
	"estimated_average_requirement" : 580,
	"recommended_dietary_intake" : 1000,
	"upper_limit" : 3500,
	"units" : "mg",
	"class" : "micronutrient"
},
{
	"nutrient" : "phosphorus_p",
	"gender" : "pregnant",
	"age_lower" : 31,
	"age_upper" : 50,
	"estimated_average_requirement" : 580,
	"recommended_dietary_intake" : 1000,
	"upper_limit" : 3500,
	"units" : "mg",
	"class" : "micronutrient"
},
{
	"nutrient" : "phosphorus_p",
	"gender" : "lactation",
	"age_lower" : 14,
	"age_upper" : 18,
	"estimated_average_requirement" : 1055,
	"recommended_dietary_intake" : 1250,
	"upper_limit" : 4000,
	"units" : "mg",
	"class" : "micronutrient"
},
{
	"nutrient" : "phosphorus_p",
	"gender" : "lactation",
	"age_lower" : 19,
	"age_upper" : 30,
	"estimated_average_requirement" : 580,
	"recommended_dietary_intake" : 1000,
	"upper_limit" : 4000,
	"units" : "mg",
	"class" : "micronutrient"
},
{
	"nutrient" : "phosphorus_p",
	"gender" : "lactation",
	"age_lower" : 31,
	"age_upper" : 50,
	"estimated_average_requirement" : 580,
	"recommended_dietary_intake" : 1000,
	"upper_limit" : 4000,
	"units" : "mg",
	"class" : "micronutrient"
},
{
	"nutrient" : "riboflavin_b2",
	"gender" : "M",
	"age_lower" : 0,
	"age_upper" : 0.5,
	"estimated_average_requirement" : 0.3,
	"recommended_dietary_intake" : "",
	"upper_limit" : "",
	"units" : "mg",
	"class" : "micronutrient"
},
{
	"nutrient" : "riboflavin_b2",
	"gender" : "M",
	"age_lower" : 0.5,
	"age_upper" : 1,
	"estimated_average_requirement" : 0.4,
	"recommended_dietary_intake" : "",
	"upper_limit" : "",
	"units" : "mg",
	"class" : "micronutrient"
},
{
	"nutrient" : "riboflavin_b2",
	"gender" : "F",
	"age_lower" : 0,
	"age_upper" : 0.5,
	"estimated_average_requirement" : 0.3,
	"recommended_dietary_intake" : "",
	"upper_limit" : "",
	"units" : "mg",
	"class" : "micronutrient"
},
{
	"nutrient" : "riboflavin_b2",
	"gender" : "F",
	"age_lower" : 0.5,
	"age_upper" : 1,
	"estimated_average_requirement" : 0.4,
	"recommended_dietary_intake" : "",
	"upper_limit" : "",
	"units" : "mg",
	"class" : "micronutrient"
},
{
	"nutrient" : "riboflavin_b2",
	"gender" : "M",
	"age_lower" : 1,
	"age_upper" : 3,
	"estimated_average_requirement" : 0.4,
	"recommended_dietary_intake" : 0.5,
	"upper_limit" : "",
	"units" : "mg",
	"class" : "micronutrient"
},
{
	"nutrient" : "riboflavin_b2",
	"gender" : "M",
	"age_lower" : 4,
	"age_upper" : 8,
	"estimated_average_requirement" : 0.5,
	"recommended_dietary_intake" : 0.6,
	"upper_limit" : "",
	"units" : "mg",
	"class" : "micronutrient"
},
{
	"nutrient" : "riboflavin_b2",
	"gender" : "F",
	"age_lower" : 1,
	"age_upper" : 3,
	"estimated_average_requirement" : 0.4,
	"recommended_dietary_intake" : 0.5,
	"upper_limit" : "",
	"units" : "mg",
	"class" : "micronutrient"
},
{
	"nutrient" : "riboflavin_b2",
	"gender" : "F",
	"age_lower" : 4,
	"age_upper" : 8,
	"estimated_average_requirement" : 0.5,
	"recommended_dietary_intake" : 0.6,
	"upper_limit" : "",
	"units" : "mg",
	"class" : "micronutrient"
},
{
	"nutrient" : "riboflavin_b2",
	"gender" : "M",
	"age_lower" : 9,
	"age_upper" : 13,
	"estimated_average_requirement" : 0.8,
	"recommended_dietary_intake" : 0.9,
	"upper_limit" : "",
	"units" : "mg",
	"class" : "micronutrient"
},
{
	"nutrient" : "riboflavin_b2",
	"gender" : "M",
	"age_lower" : 14,
	"age_upper" : 18,
	"estimated_average_requirement" : 1.1,
	"recommended_dietary_intake" : 1.3,
	"upper_limit" : "",
	"units" : "mg",
	"class" : "micronutrient"
},
{
	"nutrient" : "riboflavin_b2",
	"gender" : "F",
	"age_lower" : 9,
	"age_upper" : 13,
	"estimated_average_requirement" : 0.8,
	"recommended_dietary_intake" : 0.9,
	"upper_limit" : "",
	"units" : "mg",
	"class" : "micronutrient"
},
{
	"nutrient" : "riboflavin_b2",
	"gender" : "F",
	"age_lower" : 14,
	"age_upper" : 18,
	"estimated_average_requirement" : 0.9,
	"recommended_dietary_intake" : 1.1,
	"upper_limit" : "",
	"units" : "mg",
	"class" : "micronutrient"
},
{
	"nutrient" : "riboflavin_b2",
	"gender" : "M",
	"age_lower" : 19,
	"age_upper" : 30,
	"estimated_average_requirement" : 1.1,
	"recommended_dietary_intake" : 1.3,
	"upper_limit" : "",
	"units" : "mg",
	"class" : "micronutrient"
},
{
	"nutrient" : "riboflavin_b2",
	"gender" : "M",
	"age_lower" : 31,
	"age_upper" : 50,
	"estimated_average_requirement" : 1.1,
	"recommended_dietary_intake" : 1.3,
	"upper_limit" : "",
	"units" : "mg",
	"class" : "micronutrient"
},
{
	"nutrient" : "riboflavin_b2",
	"gender" : "M",
	"age_lower" : 51,
	"age_upper" : 70,
	"estimated_average_requirement" : 1.1,
	"recommended_dietary_intake" : 1.3,
	"upper_limit" : "",
	"units" : "mg",
	"class" : "micronutrient"
},
{
	"nutrient" : "riboflavin_b2",
	"gender" : "M",
	"age_lower" : 71,
	"age_upper" : 200,
	"estimated_average_requirement" : 1.3,
	"recommended_dietary_intake" : 1.6,
	"upper_limit" : "",
	"units" : "mg",
	"class" : "micronutrient"
},
{
	"nutrient" : "riboflavin_b2",
	"gender" : "F",
	"age_lower" : 19,
	"age_upper" : 30,
	"estimated_average_requirement" : 0.9,
	"recommended_dietary_intake" : 1.1,
	"upper_limit" : "",
	"units" : "mg",
	"class" : "micronutrient"
},
{
	"nutrient" : "riboflavin_b2",
	"gender" : "F",
	"age_lower" : 31,
	"age_upper" : 50,
	"estimated_average_requirement" : 0.9,
	"recommended_dietary_intake" : 1.1,
	"upper_limit" : "",
	"units" : "mg",
	"class" : "micronutrient"
},
{
	"nutrient" : "riboflavin_b2",
	"gender" : "F",
	"age_lower" : 51,
	"age_upper" : 70,
	"estimated_average_requirement" : 0.9,
	"recommended_dietary_intake" : 1.1,
	"upper_limit" : "",
	"units" : "mg",
	"class" : "micronutrient"
},
{
	"nutrient" : "riboflavin_b2",
	"gender" : "F",
	"age_lower" : 71,
	"age_upper" : 200,
	"estimated_average_requirement" : 1.1,
	"recommended_dietary_intake" : 1.3,
	"upper_limit" : "",
	"units" : "mg",
	"class" : "micronutrient"
},
{
	"nutrient" : "riboflavin_b2",
	"gender" : "pregnant",
	"age_lower" : 14,
	"age_upper" : 18,
	"estimated_average_requirement" : 1.2,
	"recommended_dietary_intake" : 1.4,
	"upper_limit" : "",
	"units" : "mg",
	"class" : "micronutrient"
},
{
	"nutrient" : "riboflavin_b2",
	"gender" : "pregnant",
	"age_lower" : 19,
	"age_upper" : 30,
	"estimated_average_requirement" : 1.2,
	"recommended_dietary_intake" : 1.4,
	"upper_limit" : "",
	"units" : "mg",
	"class" : "micronutrient"
},
{
	"nutrient" : "riboflavin_b2",
	"gender" : "pregnant",
	"age_lower" : 31,
	"age_upper" : 50,
	"estimated_average_requirement" : 1.2,
	"recommended_dietary_intake" : 1.4,
	"upper_limit" : "",
	"units" : "mg",
	"class" : "micronutrient"
},
{
	"nutrient" : "riboflavin_b2",
	"gender" : "lactation",
	"age_lower" : 14,
	"age_upper" : 18,
	"estimated_average_requirement" : 1.3,
	"recommended_dietary_intake" : 1.6,
	"upper_limit" : "",
	"units" : "mg",
	"class" : "micronutrient"
},
{
	"nutrient" : "riboflavin_b2",
	"gender" : "lactation",
	"age_lower" : 19,
	"age_upper" : 30,
	"estimated_average_requirement" : 1.3,
	"recommended_dietary_intake" : 1.6,
	"upper_limit" : "",
	"units" : "mg",
	"class" : "micronutrient"
},
{
	"nutrient" : "riboflavin_b2",
	"gender" : "lactation",
	"age_lower" : 31,
	"age_upper" : 50,
	"estimated_average_requirement" : 1.3,
	"recommended_dietary_intake" : 1.6,
	"upper_limit" : "",
	"units" : "mg",
	"class" : "micronutrient"
},
{
	"nutrient" : "thiamin_b1",
	"gender" : "M",
	"age_lower" : 0,
	"age_upper" : 0.5,
	"estimated_average_requirement" : 0.2,
	"recommended_dietary_intake" : "",
	"upper_limit" : "",
	"units" : "mg",
	"class" : "micronutrient"
},
{
	"nutrient" : "thiamin_b1",
	"gender" : "M",
	"age_lower" : 0.5,
	"age_upper" : 1,
	"estimated_average_requirement" : 0.3,
	"recommended_dietary_intake" : "",
	"upper_limit" : "",
	"units" : "mg",
	"class" : "micronutrient"
},
{
	"nutrient" : "thiamin_b1",
	"gender" : "F",
	"age_lower" : 0,
	"age_upper" : 0.5,
	"estimated_average_requirement" : 0.2,
	"recommended_dietary_intake" : "",
	"upper_limit" : "",
	"units" : "mg",
	"class" : "micronutrient"
},
{
	"nutrient" : "thiamin_b1",
	"gender" : "F",
	"age_lower" : 0.5,
	"age_upper" : 1,
	"estimated_average_requirement" : 0.3,
	"recommended_dietary_intake" : "",
	"upper_limit" : "",
	"units" : "mg",
	"class" : "micronutrient"
},
{
	"nutrient" : "thiamin_b1",
	"gender" : "M",
	"age_lower" : 1,
	"age_upper" : 3,
	"estimated_average_requirement" : 0.4,
	"recommended_dietary_intake" : 0.5,
	"upper_limit" : "",
	"units" : "mg",
	"class" : "micronutrient"
},
{
	"nutrient" : "thiamin_b1",
	"gender" : "M",
	"age_lower" : 4,
	"age_upper" : 8,
	"estimated_average_requirement" : 0.5,
	"recommended_dietary_intake" : 0.6,
	"upper_limit" : "",
	"units" : "mg",
	"class" : "micronutrient"
},
{
	"nutrient" : "thiamin_b1",
	"gender" : "F",
	"age_lower" : 1,
	"age_upper" : 3,
	"estimated_average_requirement" : 0.4,
	"recommended_dietary_intake" : 0.5,
	"upper_limit" : "",
	"units" : "mg",
	"class" : "micronutrient"
},
{
	"nutrient" : "thiamin_b1",
	"gender" : "F",
	"age_lower" : 4,
	"age_upper" : 8,
	"estimated_average_requirement" : 0.5,
	"recommended_dietary_intake" : 0.6,
	"upper_limit" : "",
	"units" : "mg",
	"class" : "micronutrient"
},
{
	"nutrient" : "thiamin_b1",
	"gender" : "M",
	"age_lower" : 9,
	"age_upper" : 13,
	"estimated_average_requirement" : 0.7,
	"recommended_dietary_intake" : 0.9,
	"upper_limit" : "",
	"units" : "mg",
	"class" : "micronutrient"
},
{
	"nutrient" : "thiamin_b1",
	"gender" : "M",
	"age_lower" : 14,
	"age_upper" : 18,
	"estimated_average_requirement" : 1,
	"recommended_dietary_intake" : 1.2,
	"upper_limit" : "",
	"units" : "mg",
	"class" : "micronutrient"
},
{
	"nutrient" : "thiamin_b1",
	"gender" : "F",
	"age_lower" : 9,
	"age_upper" : 13,
	"estimated_average_requirement" : 0.7,
	"recommended_dietary_intake" : 0.9,
	"upper_limit" : "",
	"units" : "mg",
	"class" : "micronutrient"
},
{
	"nutrient" : "thiamin_b1",
	"gender" : "F",
	"age_lower" : 14,
	"age_upper" : 18,
	"estimated_average_requirement" : 0.9,
	"recommended_dietary_intake" : 1.1,
	"upper_limit" : "",
	"units" : "mg",
	"class" : "micronutrient"
},
{
	"nutrient" : "thiamin_b1",
	"gender" : "M",
	"age_lower" : 19,
	"age_upper" : 30,
	"estimated_average_requirement" : 1,
	"recommended_dietary_intake" : 1.2,
	"upper_limit" : "",
	"units" : "mg",
	"class" : "micronutrient"
},
{
	"nutrient" : "thiamin_b1",
	"gender" : "M",
	"age_lower" : 31,
	"age_upper" : 50,
	"estimated_average_requirement" : 1,
	"recommended_dietary_intake" : 1.2,
	"upper_limit" : "",
	"units" : "mg",
	"class" : "micronutrient"
},
{
	"nutrient" : "thiamin_b1",
	"gender" : "M",
	"age_lower" : 51,
	"age_upper" : 70,
	"estimated_average_requirement" : 1,
	"recommended_dietary_intake" : 1.2,
	"upper_limit" : "",
	"units" : "mg",
	"class" : "micronutrient"
},
{
	"nutrient" : "thiamin_b1",
	"gender" : "M",
	"age_lower" : 71,
	"age_upper" : 200,
	"estimated_average_requirement" : 1,
	"recommended_dietary_intake" : 1.2,
	"upper_limit" : "",
	"units" : "mg",
	"class" : "micronutrient"
},
{
	"nutrient" : "thiamin_b1",
	"gender" : "F",
	"age_lower" : 19,
	"age_upper" : 30,
	"estimated_average_requirement" : 0.9,
	"recommended_dietary_intake" : 1.1,
	"upper_limit" : "",
	"units" : "mg",
	"class" : "micronutrient"
},
{
	"nutrient" : "thiamin_b1",
	"gender" : "F",
	"age_lower" : 31,
	"age_upper" : 50,
	"estimated_average_requirement" : 0.9,
	"recommended_dietary_intake" : 1.1,
	"upper_limit" : "",
	"units" : "mg",
	"class" : "micronutrient"
},
{
	"nutrient" : "thiamin_b1",
	"gender" : "F",
	"age_lower" : 51,
	"age_upper" : 70,
	"estimated_average_requirement" : 0.9,
	"recommended_dietary_intake" : 1.1,
	"upper_limit" : "",
	"units" : "mg",
	"class" : "micronutrient"
},
{
	"nutrient" : "thiamin_b1",
	"gender" : "F",
	"age_lower" : 71,
	"age_upper" : 200,
	"estimated_average_requirement" : 0.9,
	"recommended_dietary_intake" : 1.1,
	"upper_limit" : "",
	"units" : "mg",
	"class" : "micronutrient"
},
{
	"nutrient" : "thiamin_b1",
	"gender" : "pregnant",
	"age_lower" : 14,
	"age_upper" : 18,
	"estimated_average_requirement" : 1.2,
	"recommended_dietary_intake" : 1.4,
	"upper_limit" : "",
	"units" : "mg",
	"class" : "micronutrient"
},
{
	"nutrient" : "thiamin_b1",
	"gender" : "pregnant",
	"age_lower" : 19,
	"age_upper" : 30,
	"estimated_average_requirement" : 1.2,
	"recommended_dietary_intake" : 1.4,
	"upper_limit" : "",
	"units" : "mg",
	"class" : "micronutrient"
},
{
	"nutrient" : "thiamin_b1",
	"gender" : "pregnant",
	"age_lower" : 31,
	"age_upper" : 50,
	"estimated_average_requirement" : 1.2,
	"recommended_dietary_intake" : 1.4,
	"upper_limit" : "",
	"units" : "mg",
	"class" : "micronutrient"
},
{
	"nutrient" : "thiamin_b1",
	"gender" : "lactation",
	"age_lower" : 14,
	"age_upper" : 18,
	"estimated_average_requirement" : 1.2,
	"recommended_dietary_intake" : 1.4,
	"upper_limit" : "",
	"units" : "mg",
	"class" : "micronutrient"
},
{
	"nutrient" : "thiamin_b1",
	"gender" : "lactation",
	"age_lower" : 19,
	"age_upper" : 30,
	"estimated_average_requirement" : 1.2,
	"recommended_dietary_intake" : 1.4,
	"upper_limit" : "",
	"units" : "mg",
	"class" : "micronutrient"
},
{
	"nutrient" : "thiamin_b1",
	"gender" : "lactation",
	"age_lower" : 31,
	"age_upper" : 50,
	"estimated_average_requirement" : 1.2,
	"recommended_dietary_intake" : 1.4,
	"upper_limit" : "",
	"units" : "mg",
	"class" : "micronutrient"
},
{
	"nutrient" : "vitamin_b6",
	"gender" : "M",
	"age_lower" : 0,
	"age_upper" : 0.5,
	"estimated_average_requirement" : 0.1,
	"recommended_dietary_intake" : "",
	"upper_limit" : "",
	"units" : "mg",
	"class" : "micronutrient"
},
{
	"nutrient" : "vitamin_b6",
	"gender" : "M",
	"age_lower" : 0.5,
	"age_upper" : 1,
	"estimated_average_requirement" : 0.3,
	"recommended_dietary_intake" : "",
	"upper_limit" : "",
	"units" : "mg",
	"class" : "micronutrient"
},
{
	"nutrient" : "vitamin_b6",
	"gender" : "F",
	"age_lower" : 0,
	"age_upper" : 0.5,
	"estimated_average_requirement" : 0.1,
	"recommended_dietary_intake" : "",
	"upper_limit" : "",
	"units" : "mg",
	"class" : "micronutrient"
},
{
	"nutrient" : "vitamin_b6",
	"gender" : "F",
	"age_lower" : 0.5,
	"age_upper" : 1,
	"estimated_average_requirement" : 0.3,
	"recommended_dietary_intake" : "",
	"upper_limit" : "",
	"units" : "mg",
	"class" : "micronutrient"
},
{
	"nutrient" : "vitamin_b6",
	"gender" : "M",
	"age_lower" : 1,
	"age_upper" : 3,
	"estimated_average_requirement" : 0.4,
	"recommended_dietary_intake" : 0.5,
	"upper_limit" : 15,
	"units" : "mg",
	"class" : "micronutrient"
},
{
	"nutrient" : "vitamin_b6",
	"gender" : "M",
	"age_lower" : 4,
	"age_upper" : 8,
	"estimated_average_requirement" : 0.5,
	"recommended_dietary_intake" : 0.6,
	"upper_limit" : 20,
	"units" : "mg",
	"class" : "micronutrient"
},
{
	"nutrient" : "vitamin_b6",
	"gender" : "F",
	"age_lower" : 1,
	"age_upper" : 3,
	"estimated_average_requirement" : 0.4,
	"recommended_dietary_intake" : 0.5,
	"upper_limit" : 15,
	"units" : "mg",
	"class" : "micronutrient"
},
{
	"nutrient" : "vitamin_b6",
	"gender" : "F",
	"age_lower" : 4,
	"age_upper" : 8,
	"estimated_average_requirement" : 0.5,
	"recommended_dietary_intake" : 0.6,
	"upper_limit" : 20,
	"units" : "mg",
	"class" : "micronutrient"
},
{
	"nutrient" : "vitamin_b6",
	"gender" : "M",
	"age_lower" : 9,
	"age_upper" : 13,
	"estimated_average_requirement" : 0.8,
	"recommended_dietary_intake" : 1,
	"upper_limit" : 30,
	"units" : "mg",
	"class" : "micronutrient"
},
{
	"nutrient" : "vitamin_b6",
	"gender" : "M",
	"age_lower" : 14,
	"age_upper" : 18,
	"estimated_average_requirement" : 1.1,
	"recommended_dietary_intake" : 1.3,
	"upper_limit" : 40,
	"units" : "mg",
	"class" : "micronutrient"
},
{
	"nutrient" : "vitamin_b6",
	"gender" : "F",
	"age_lower" : 9,
	"age_upper" : 13,
	"estimated_average_requirement" : 0.8,
	"recommended_dietary_intake" : 1,
	"upper_limit" : 30,
	"units" : "mg",
	"class" : "micronutrient"
},
{
	"nutrient" : "vitamin_b6",
	"gender" : "F",
	"age_lower" : 14,
	"age_upper" : 18,
	"estimated_average_requirement" : 1,
	"recommended_dietary_intake" : 1.2,
	"upper_limit" : 40,
	"units" : "mg",
	"class" : "micronutrient"
},
{
	"nutrient" : "vitamin_b6",
	"gender" : "M",
	"age_lower" : 19,
	"age_upper" : 30,
	"estimated_average_requirement" : 1.1,
	"recommended_dietary_intake" : 1.3,
	"upper_limit" : 50,
	"units" : "mg",
	"class" : "micronutrient"
},
{
	"nutrient" : "vitamin_b6",
	"gender" : "M",
	"age_lower" : 31,
	"age_upper" : 50,
	"estimated_average_requirement" : 1.1,
	"recommended_dietary_intake" : 1.3,
	"upper_limit" : 50,
	"units" : "mg",
	"class" : "micronutrient"
},
{
	"nutrient" : "vitamin_b6",
	"gender" : "M",
	"age_lower" : 51,
	"age_upper" : 70,
	"estimated_average_requirement" : 1.4,
	"recommended_dietary_intake" : 1.7,
	"upper_limit" : 50,
	"units" : "mg",
	"class" : "micronutrient"
},
{
	"nutrient" : "vitamin_b6",
	"gender" : "M",
	"age_lower" : 71,
	"age_upper" : 200,
	"estimated_average_requirement" : 1.4,
	"recommended_dietary_intake" : 1.7,
	"upper_limit" : 50,
	"units" : "mg",
	"class" : "micronutrient"
},
{
	"nutrient" : "vitamin_b6",
	"gender" : "F",
	"age_lower" : 19,
	"age_upper" : 30,
	"estimated_average_requirement" : 1.1,
	"recommended_dietary_intake" : 1.3,
	"upper_limit" : 50,
	"units" : "mg",
	"class" : "micronutrient"
},
{
	"nutrient" : "vitamin_b6",
	"gender" : "F",
	"age_lower" : 31,
	"age_upper" : 50,
	"estimated_average_requirement" : 1.1,
	"recommended_dietary_intake" : 1.3,
	"upper_limit" : 50,
	"units" : "mg",
	"class" : "micronutrient"
},
{
	"nutrient" : "vitamin_b6",
	"gender" : "F",
	"age_lower" : 51,
	"age_upper" : 70,
	"estimated_average_requirement" : 1.3,
	"recommended_dietary_intake" : 1.5,
	"upper_limit" : 50,
	"units" : "mg",
	"class" : "micronutrient"
},
{
	"nutrient" : "vitamin_b6",
	"gender" : "F",
	"age_lower" : 71,
	"age_upper" : 200,
	"estimated_average_requirement" : 1.3,
	"recommended_dietary_intake" : 1.5,
	"upper_limit" : 50,
	"units" : "mg",
	"class" : "micronutrient"
},
{
	"nutrient" : "vitamin_b6",
	"gender" : "pregnant",
	"age_lower" : 14,
	"age_upper" : 18,
	"estimated_average_requirement" : 1.6,
	"recommended_dietary_intake" : 1.9,
	"upper_limit" : 40,
	"units" : "mg",
	"class" : "micronutrient"
},
{
	"nutrient" : "vitamin_b6",
	"gender" : "pregnant",
	"age_lower" : 19,
	"age_upper" : 30,
	"estimated_average_requirement" : 1.6,
	"recommended_dietary_intake" : 1.9,
	"upper_limit" : 50,
	"units" : "mg",
	"class" : "micronutrient"
},
{
	"nutrient" : "vitamin_b6",
	"gender" : "pregnant",
	"age_lower" : 31,
	"age_upper" : 50,
	"estimated_average_requirement" : 1.6,
	"recommended_dietary_intake" : 1.9,
	"upper_limit" : 50,
	"units" : "mg",
	"class" : "micronutrient"
},
{
	"nutrient" : "vitamin_b6",
	"gender" : "lactation",
	"age_lower" : 14,
	"age_upper" : 18,
	"estimated_average_requirement" : 1.7,
	"recommended_dietary_intake" : 2,
	"upper_limit" : 40,
	"units" : "mg",
	"class" : "micronutrient"
},
{
	"nutrient" : "vitamin_b6",
	"gender" : "lactation",
	"age_lower" : 19,
	"age_upper" : 30,
	"estimated_average_requirement" : 1.7,
	"recommended_dietary_intake" : 2,
	"upper_limit" : 50,
	"units" : "mg",
	"class" : "micronutrient"
},
{
	"nutrient" : "vitamin_b6",
	"gender" : "lactation",
	"age_lower" : 31,
	"age_upper" : 50,
	"estimated_average_requirement" : 1.7,
	"recommended_dietary_intake" : 2,
	"upper_limit" : 50,
	"units" : "mg",
	"class" : "micronutrient"
},
{
	"nutrient" : "vitamin_c",
	"gender" : "M",
	"age_lower" : 0,
	"age_upper" : 0.5,
	"estimated_average_requirement" : 25,
	"recommended_dietary_intake" : "",
	"upper_limit" : "",
	"units" : "mg",
	"class" : "micronutrient"
},
{
	"nutrient" : "vitamin_c",
	"gender" : "M",
	"age_lower" : 0.5,
	"age_upper" : 1,
	"estimated_average_requirement" : 30,
	"recommended_dietary_intake" : "",
	"upper_limit" : "",
	"units" : "mg",
	"class" : "micronutrient"
},
{
	"nutrient" : "vitamin_c",
	"gender" : "F",
	"age_lower" : 0,
	"age_upper" : 0.5,
	"estimated_average_requirement" : 25,
	"recommended_dietary_intake" : "",
	"upper_limit" : "",
	"units" : "mg",
	"class" : "micronutrient"
},
{
	"nutrient" : "vitamin_c",
	"gender" : "F",
	"age_lower" : 0.5,
	"age_upper" : 1,
	"estimated_average_requirement" : 30,
	"recommended_dietary_intake" : "",
	"upper_limit" : "",
	"units" : "mg",
	"class" : "micronutrient"
},
{
	"nutrient" : "vitamin_c",
	"gender" : "M",
	"age_lower" : 1,
	"age_upper" : 3,
	"estimated_average_requirement" : 25,
	"recommended_dietary_intake" : 35,
	"upper_limit" : "",
	"units" : "mg",
	"class" : "micronutrient"
},
{
	"nutrient" : "vitamin_c",
	"gender" : "M",
	"age_lower" : 4,
	"age_upper" : 8,
	"estimated_average_requirement" : 25,
	"recommended_dietary_intake" : 35,
	"upper_limit" : "",
	"units" : "mg",
	"class" : "micronutrient"
},
{
	"nutrient" : "vitamin_c",
	"gender" : "F",
	"age_lower" : 1,
	"age_upper" : 3,
	"estimated_average_requirement" : 25,
	"recommended_dietary_intake" : 35,
	"upper_limit" : "",
	"units" : "mg",
	"class" : "micronutrient"
},
{
	"nutrient" : "vitamin_c",
	"gender" : "F",
	"age_lower" : 4,
	"age_upper" : 8,
	"estimated_average_requirement" : 25,
	"recommended_dietary_intake" : 35,
	"upper_limit" : "",
	"units" : "mg",
	"class" : "micronutrient"
},
{
	"nutrient" : "vitamin_c",
	"gender" : "M",
	"age_lower" : 9,
	"age_upper" : 13,
	"estimated_average_requirement" : 28,
	"recommended_dietary_intake" : 40,
	"upper_limit" : "",
	"units" : "mg",
	"class" : "micronutrient"
},
{
	"nutrient" : "vitamin_c",
	"gender" : "M",
	"age_lower" : 14,
	"age_upper" : 18,
	"estimated_average_requirement" : 28,
	"recommended_dietary_intake" : 40,
	"upper_limit" : "",
	"units" : "mg",
	"class" : "micronutrient"
},
{
	"nutrient" : "vitamin_c",
	"gender" : "F",
	"age_lower" : 9,
	"age_upper" : 13,
	"estimated_average_requirement" : 28,
	"recommended_dietary_intake" : 40,
	"upper_limit" : "",
	"units" : "mg",
	"class" : "micronutrient"
},
{
	"nutrient" : "vitamin_c",
	"gender" : "F",
	"age_lower" : 14,
	"age_upper" : 18,
	"estimated_average_requirement" : 28,
	"recommended_dietary_intake" : 40,
	"upper_limit" : "",
	"units" : "mg",
	"class" : "micronutrient"
},
{
	"nutrient" : "vitamin_c",
	"gender" : "M",
	"age_lower" : 19,
	"age_upper" : 30,
	"estimated_average_requirement" : 30,
	"recommended_dietary_intake" : 45,
	"upper_limit" : "",
	"units" : "mg",
	"class" : "micronutrient"
},
{
	"nutrient" : "vitamin_c",
	"gender" : "M",
	"age_lower" : 31,
	"age_upper" : 50,
	"estimated_average_requirement" : 30,
	"recommended_dietary_intake" : 45,
	"upper_limit" : "",
	"units" : "mg",
	"class" : "micronutrient"
},
{
	"nutrient" : "vitamin_c",
	"gender" : "M",
	"age_lower" : 51,
	"age_upper" : 70,
	"estimated_average_requirement" : 30,
	"recommended_dietary_intake" : 45,
	"upper_limit" : "",
	"units" : "mg",
	"class" : "micronutrient"
},
{
	"nutrient" : "vitamin_c",
	"gender" : "M",
	"age_lower" : 71,
	"age_upper" : 200,
	"estimated_average_requirement" : 30,
	"recommended_dietary_intake" : 45,
	"upper_limit" : "",
	"units" : "mg",
	"class" : "micronutrient"
},
{
	"nutrient" : "vitamin_c",
	"gender" : "F",
	"age_lower" : 19,
	"age_upper" : 30,
	"estimated_average_requirement" : 30,
	"recommended_dietary_intake" : 45,
	"upper_limit" : "",
	"units" : "mg",
	"class" : "micronutrient"
},
{
	"nutrient" : "vitamin_c",
	"gender" : "F",
	"age_lower" : 31,
	"age_upper" : 50,
	"estimated_average_requirement" : 30,
	"recommended_dietary_intake" : 45,
	"upper_limit" : "",
	"units" : "mg",
	"class" : "micronutrient"
},
{
	"nutrient" : "vitamin_c",
	"gender" : "F",
	"age_lower" : 51,
	"age_upper" : 70,
	"estimated_average_requirement" : 30,
	"recommended_dietary_intake" : 45,
	"upper_limit" : "",
	"units" : "mg",
	"class" : "micronutrient"
},
{
	"nutrient" : "vitamin_c",
	"gender" : "F",
	"age_lower" : 71,
	"age_upper" : 200,
	"estimated_average_requirement" : 30,
	"recommended_dietary_intake" : 45,
	"upper_limit" : "",
	"units" : "mg",
	"class" : "micronutrient"
},
{
	"nutrient" : "vitamin_c",
	"gender" : "pregnant",
	"age_lower" : 14,
	"age_upper" : 18,
	"estimated_average_requirement" : 38,
	"recommended_dietary_intake" : 55,
	"upper_limit" : "",
	"units" : "mg",
	"class" : "micronutrient"
},
{
	"nutrient" : "vitamin_c",
	"gender" : "pregnant",
	"age_lower" : 19,
	"age_upper" : 30,
	"estimated_average_requirement" : 40,
	"recommended_dietary_intake" : 60,
	"upper_limit" : "",
	"units" : "mg",
	"class" : "micronutrient"
},
{
	"nutrient" : "vitamin_c",
	"gender" : "pregnant",
	"age_lower" : 31,
	"age_upper" : 50,
	"estimated_average_requirement" : 40,
	"recommended_dietary_intake" : 60,
	"upper_limit" : "",
	"units" : "mg",
	"class" : "micronutrient"
},
{
	"nutrient" : "vitamin_c",
	"gender" : "lactation",
	"age_lower" : 14,
	"age_upper" : 18,
	"estimated_average_requirement" : 58,
	"recommended_dietary_intake" : 80,
	"upper_limit" : "",
	"units" : "mg",
	"class" : "micronutrient"
},
{
	"nutrient" : "vitamin_c",
	"gender" : "lactation",
	"age_lower" : 19,
	"age_upper" : 30,
	"estimated_average_requirement" : 60,
	"recommended_dietary_intake" : 85,
	"upper_limit" : "",
	"units" : "mg",
	"class" : "micronutrient"
},
{
	"nutrient" : "vitamin_c",
	"gender" : "lactation",
	"age_lower" : 31,
	"age_upper" : 50,
	"estimated_average_requirement" : 60,
	"recommended_dietary_intake" : 85,
	"upper_limit" : "",
	"units" : "mg",
	"class" : "micronutrient"
},
{
	"nutrient" : "zinc_zn",
	"gender" : "M",
	"age_lower" : 0,
	"age_upper" : 1,
	"estimated_average_requirement" : 3,
	"recommended_dietary_intake" : 3,
	"upper_limit" : 5,
	"units" : "mg",
	"class" : "micronutrient"
},
{
	"nutrient" : "zinc_zn",
	"gender" : "M",
	"age_lower" : 1,
	"age_upper" : 1,
	"estimated_average_requirement" : 3,
	"recommended_dietary_intake" : 3,
	"upper_limit" : 5,
	"units" : "mg",
	"class" : "micronutrient"
},
{
	"nutrient" : "zinc_zn",
	"gender" : "F",
	"age_lower" : 0,
	"age_upper" : 1,
	"estimated_average_requirement" : 3,
	"recommended_dietary_intake" : 3,
	"upper_limit" : 5,
	"units" : "mg",
	"class" : "micronutrient"
},
{
	"nutrient" : "zinc_zn",
	"gender" : "F",
	"age_lower" : 1,
	"age_upper" : 1,
	"estimated_average_requirement" : 3,
	"recommended_dietary_intake" : 3,
	"upper_limit" : 5,
	"units" : "mg",
	"class" : "micronutrient"
},
{
	"nutrient" : "zinc_zn",
	"gender" : "M",
	"age_lower" : 1,
	"age_upper" : 3,
	"estimated_average_requirement" : 3,
	"recommended_dietary_intake" : 3,
	"upper_limit" : 7,
	"units" : "mg",
	"class" : "micronutrient"
},
{
	"nutrient" : "zinc_zn",
	"gender" : "M",
	"age_lower" : 4,
	"age_upper" : 8,
	"estimated_average_requirement" : 3,
	"recommended_dietary_intake" : 4,
	"upper_limit" : 12,
	"units" : "mg",
	"class" : "micronutrient"
},
{
	"nutrient" : "zinc_zn",
	"gender" : "F",
	"age_lower" : 1,
	"age_upper" : 3,
	"estimated_average_requirement" : 3,
	"recommended_dietary_intake" : 3,
	"upper_limit" : 7,
	"units" : "mg",
	"class" : "micronutrient"
},
{
	"nutrient" : "zinc_zn",
	"gender" : "F",
	"age_lower" : 4,
	"age_upper" : 8,
	"estimated_average_requirement" : 3,
	"recommended_dietary_intake" : 4,
	"upper_limit" : 12,
	"units" : "mg",
	"class" : "micronutrient"
},
{
	"nutrient" : "zinc_zn",
	"gender" : "M",
	"age_lower" : 9,
	"age_upper" : 13,
	"estimated_average_requirement" : 5,
	"recommended_dietary_intake" : 6,
	"upper_limit" : 25,
	"units" : "mg",
	"class" : "micronutrient"
},
{
	"nutrient" : "zinc_zn",
	"gender" : "M",
	"age_lower" : 14,
	"age_upper" : 18,
	"estimated_average_requirement" : 11,
	"recommended_dietary_intake" : 13,
	"upper_limit" : 35,
	"units" : "mg",
	"class" : "micronutrient"
},
{
	"nutrient" : "zinc_zn",
	"gender" : "F",
	"age_lower" : 9,
	"age_upper" : 13,
	"estimated_average_requirement" : 5,
	"recommended_dietary_intake" : 6,
	"upper_limit" : 25,
	"units" : "mg",
	"class" : "micronutrient"
},
{
	"nutrient" : "zinc_zn",
	"gender" : "F",
	"age_lower" : 14,
	"age_upper" : 18,
	"estimated_average_requirement" : 6,
	"recommended_dietary_intake" : 7,
	"upper_limit" : 35,
	"units" : "mg",
	"class" : "micronutrient"
},
{
	"nutrient" : "zinc_zn",
	"gender" : "M",
	"age_lower" : 19,
	"age_upper" : 30,
	"estimated_average_requirement" : 12,
	"recommended_dietary_intake" : 14,
	"upper_limit" : 40,
	"units" : "mg",
	"class" : "micronutrient"
},
{
	"nutrient" : "zinc_zn",
	"gender" : "M",
	"age_lower" : 31,
	"age_upper" : 50,
	"estimated_average_requirement" : 12,
	"recommended_dietary_intake" : 14,
	"upper_limit" : 40,
	"units" : "mg",
	"class" : "micronutrient"
},
{
	"nutrient" : "zinc_zn",
	"gender" : "M",
	"age_lower" : 51,
	"age_upper" : 70,
	"estimated_average_requirement" : 12,
	"recommended_dietary_intake" : 14,
	"upper_limit" : 40,
	"units" : "mg",
	"class" : "micronutrient"
},
{
	"nutrient" : "zinc_zn",
	"gender" : "M",
	"age_lower" : 71,
	"age_upper" : 200,
	"estimated_average_requirement" : 12,
	"recommended_dietary_intake" : 14,
	"upper_limit" : 40,
	"units" : "mg",
	"class" : "micronutrient"
},
{
	"nutrient" : "zinc_zn",
	"gender" : "F",
	"age_lower" : 19,
	"age_upper" : 30,
	"estimated_average_requirement" : 7,
	"recommended_dietary_intake" : 8,
	"upper_limit" : 40,
	"units" : "mg",
	"class" : "micronutrient"
},
{
	"nutrient" : "zinc_zn",
	"gender" : "F",
	"age_lower" : 31,
	"age_upper" : 50,
	"estimated_average_requirement" : 7,
	"recommended_dietary_intake" : 8,
	"upper_limit" : 40,
	"units" : "mg",
	"class" : "micronutrient"
},
{
	"nutrient" : "zinc_zn",
	"gender" : "F",
	"age_lower" : 51,
	"age_upper" : 70,
	"estimated_average_requirement" : 7,
	"recommended_dietary_intake" : 8,
	"upper_limit" : 40,
	"units" : "mg",
	"class" : "micronutrient"
},
{
	"nutrient" : "zinc_zn",
	"gender" : "F",
	"age_lower" : 71,
	"age_upper" : 200,
	"estimated_average_requirement" : 7,
	"recommended_dietary_intake" : 8,
	"upper_limit" : 40,
	"units" : "mg",
	"class" : "micronutrient"
},
{
	"nutrient" : "zinc_zn",
	"gender" : "pregnant",
	"age_lower" : 14,
	"age_upper" : 18,
	"estimated_average_requirement" : 9,
	"recommended_dietary_intake" : 10,
	"upper_limit" : 35,
	"units" : "mg",
	"class" : "micronutrient"
},
{
	"nutrient" : "zinc_zn",
	"gender" : "pregnant",
	"age_lower" : 19,
	"age_upper" : 30,
	"estimated_average_requirement" : 9,
	"recommended_dietary_intake" : 11,
	"upper_limit" : 40,
	"units" : "mg",
	"class" : "micronutrient"
},
{
	"nutrient" : "zinc_zn",
	"gender" : "pregnant",
	"age_lower" : 31,
	"age_upper" : 50,
	"estimated_average_requirement" : 9,
	"recommended_dietary_intake" : 11,
	"upper_limit" : 40,
	"units" : "mg",
	"class" : "micronutrient"
},
{
	"nutrient" : "zinc_zn",
	"gender" : "lactation",
	"age_lower" : 14,
	"age_upper" : 18,
	"estimated_average_requirement" : 9,
	"recommended_dietary_intake" : 11,
	"upper_limit" : 35,
	"units" : "mg",
	"class" : "micronutrient"
},
{
	"nutrient" : "zinc_zn",
	"gender" : "lactation",
	"age_lower" : 19,
	"age_upper" : 30,
	"estimated_average_requirement" : 10,
	"recommended_dietary_intake" : 12,
	"upper_limit" : 40,
	"units" : "mg",
	"class" : "micronutrient"
},
{
	"nutrient" : "zinc_zn",
	"gender" : "lactation",
	"age_lower" : 31,
	"age_upper" : 50,
	"estimated_average_requirement" : 10,
	"recommended_dietary_intake" : 12,
	"upper_limit" : 40,
	"units" : "mg",
	"class" : "micronutrient"
},
{
	"nutrient" : "iodine_i",
	"gender" : "M",
	"age_lower" : 0,
	"age_upper" : 1,
	"estimated_average_requirement" : 90,
	"recommended_dietary_intake" : "",
	"upper_limit" : "",
	"units" : "ug",
	"class" : "micronutrient"
},
{
	"nutrient" : "iodine_i",
	"gender" : "M",
	"age_lower" : 1,
	"age_upper" : 1,
	"estimated_average_requirement" : 110,
	"recommended_dietary_intake" : "",
	"upper_limit" : "",
	"units" : "ug",
	"class" : "micronutrient"
},
{
	"nutrient" : "iodine_i",
	"gender" : "F",
	"age_lower" : 0,
	"age_upper" : 1,
	"estimated_average_requirement" : 90,
	"recommended_dietary_intake" : "",
	"upper_limit" : "",
	"units" : "ug",
	"class" : "micronutrient"
},
{
	"nutrient" : "iodine_i",
	"gender" : "F",
	"age_lower" : 1,
	"age_upper" : 1,
	"estimated_average_requirement" : 110,
	"recommended_dietary_intake" : "",
	"upper_limit" : "",
	"units" : "ug",
	"class" : "micronutrient"
},
{
	"nutrient" : "iodine_i",
	"gender" : "M",
	"age_lower" : 1,
	"age_upper" : 3,
	"estimated_average_requirement" : 65,
	"recommended_dietary_intake" : 90,
	"upper_limit" : 200,
	"units" : "ug",
	"class" : "micronutrient"
},
{
	"nutrient" : "iodine_i",
	"gender" : "M",
	"age_lower" : 4,
	"age_upper" : 8,
	"estimated_average_requirement" : 65,
	"recommended_dietary_intake" : 90,
	"upper_limit" : 300,
	"units" : "ug",
	"class" : "micronutrient"
},
{
	"nutrient" : "iodine_i",
	"gender" : "F",
	"age_lower" : 1,
	"age_upper" : 3,
	"estimated_average_requirement" : 65,
	"recommended_dietary_intake" : 90,
	"upper_limit" : 200,
	"units" : "ug",
	"class" : "micronutrient"
},
{
	"nutrient" : "iodine_i",
	"gender" : "F",
	"age_lower" : 4,
	"age_upper" : 8,
	"estimated_average_requirement" : 65,
	"recommended_dietary_intake" : 90,
	"upper_limit" : 300,
	"units" : "ug",
	"class" : "micronutrient"
},
{
	"nutrient" : "iodine_i",
	"gender" : "M",
	"age_lower" : 9,
	"age_upper" : 13,
	"estimated_average_requirement" : 75,
	"recommended_dietary_intake" : 120,
	"upper_limit" : 600,
	"units" : "ug",
	"class" : "micronutrient"
},
{
	"nutrient" : "iodine_i",
	"gender" : "M",
	"age_lower" : 14,
	"age_upper" : 18,
	"estimated_average_requirement" : 95,
	"recommended_dietary_intake" : 150,
	"upper_limit" : 900,
	"units" : "ug",
	"class" : "micronutrient"
},
{
	"nutrient" : "iodine_i",
	"gender" : "F",
	"age_lower" : 9,
	"age_upper" : 13,
	"estimated_average_requirement" : 75,
	"recommended_dietary_intake" : 120,
	"upper_limit" : 600,
	"units" : "ug",
	"class" : "micronutrient"
},
{
	"nutrient" : "iodine_i",
	"gender" : "F",
	"age_lower" : 14,
	"age_upper" : 18,
	"estimated_average_requirement" : 95,
	"recommended_dietary_intake" : 150,
	"upper_limit" : 900,
	"units" : "ug",
	"class" : "micronutrient"
},
{
	"nutrient" : "iodine_i",
	"gender" : "M",
	"age_lower" : 19,
	"age_upper" : 30,
	"estimated_average_requirement" : 100,
	"recommended_dietary_intake" : 150,
	"upper_limit" : 1100,
	"units" : "ug",
	"class" : "micronutrient"
},
{
	"nutrient" : "iodine_i",
	"gender" : "M",
	"age_lower" : 31,
	"age_upper" : 50,
	"estimated_average_requirement" : 100,
	"recommended_dietary_intake" : 150,
	"upper_limit" : 1100,
	"units" : "ug",
	"class" : "micronutrient"
},
{
	"nutrient" : "iodine_i",
	"gender" : "M",
	"age_lower" : 51,
	"age_upper" : 70,
	"estimated_average_requirement" : 100,
	"recommended_dietary_intake" : 150,
	"upper_limit" : 1100,
	"units" : "ug",
	"class" : "micronutrient"
},
{
	"nutrient" : "iodine_i",
	"gender" : "M",
	"age_lower" : 71,
	"age_upper" : 200,
	"estimated_average_requirement" : 100,
	"recommended_dietary_intake" : 150,
	"upper_limit" : 1100,
	"units" : "ug",
	"class" : "micronutrient"
},
{
	"nutrient" : "iodine_i",
	"gender" : "F",
	"age_lower" : 19,
	"age_upper" : 30,
	"estimated_average_requirement" : 100,
	"recommended_dietary_intake" : 150,
	"upper_limit" : 1100,
	"units" : "ug",
	"class" : "micronutrient"
},
{
	"nutrient" : "iodine_i",
	"gender" : "F",
	"age_lower" : 31,
	"age_upper" : 50,
	"estimated_average_requirement" : 100,
	"recommended_dietary_intake" : 150,
	"upper_limit" : 1100,
	"units" : "ug",
	"class" : "micronutrient"
},
{
	"nutrient" : "iodine_i",
	"gender" : "F",
	"age_lower" : 51,
	"age_upper" : 70,
	"estimated_average_requirement" : 100,
	"recommended_dietary_intake" : 150,
	"upper_limit" : 1100,
	"units" : "ug",
	"class" : "micronutrient"
},
{
	"nutrient" : "iodine_i",
	"gender" : "F",
	"age_lower" : 71,
	"age_upper" : 200,
	"estimated_average_requirement" : 100,
	"recommended_dietary_intake" : 150,
	"upper_limit" : 1100,
	"units" : "ug",
	"class" : "micronutrient"
},
{
	"nutrient" : "iodine_i",
	"gender" : "pregnant",
	"age_lower" : 14,
	"age_upper" : 18,
	"estimated_average_requirement" : 160,
	"recommended_dietary_intake" : 220,
	"upper_limit" : 900,
	"units" : "ug",
	"class" : "micronutrient"
},
{
	"nutrient" : "iodine_i",
	"gender" : "pregnant",
	"age_lower" : 19,
	"age_upper" : 30,
	"estimated_average_requirement" : 160,
	"recommended_dietary_intake" : 220,
	"upper_limit" : 1100,
	"units" : "ug",
	"class" : "micronutrient"
},
{
	"nutrient" : "iodine_i",
	"gender" : "pregnant",
	"age_lower" : 31,
	"age_upper" : 50,
	"estimated_average_requirement" : 160,
	"recommended_dietary_intake" : 220,
	"upper_limit" : 1100,
	"units" : "ug",
	"class" : "micronutrient"
},
{
	"nutrient" : "iodine_i",
	"gender" : "lactation",
	"age_lower" : 14,
	"age_upper" : 18,
	"estimated_average_requirement" : 190,
	"recommended_dietary_intake" : 270,
	"upper_limit" : 900,
	"units" : "ug",
	"class" : "micronutrient"
},
{
	"nutrient" : "iodine_i",
	"gender" : "lactation",
	"age_lower" : 19,
	"age_upper" : 30,
	"estimated_average_requirement" : 190,
	"recommended_dietary_intake" : 270,
	"upper_limit" : 1100,
	"units" : "ug",
	"class" : "micronutrient"
},
{
	"nutrient" : "iodine_i",
	"gender" : "lactation",
	"age_lower" : 31,
	"age_upper" : 50,
	"estimated_average_requirement" : 190,
	"recommended_dietary_intake" : 270,
	"upper_limit" : 1100,
	"units" : "ug",
	"class" : "micronutrient"
},
{
	"nutrient" : "selenium_se",
	"gender" : "M",
	"age_lower" : 0,
	"age_upper" : 1,
	"estimated_average_requirement" : 12,
	"recommended_dietary_intake" : "",
	"upper_limit" : 45,
	"units" : "ug",
	"class" : "micronutrient"
},
{
	"nutrient" : "selenium_se",
	"gender" : "M",
	"age_lower" : 1,
	"age_upper" : 1,
	"estimated_average_requirement" : 15,
	"recommended_dietary_intake" : "",
	"upper_limit" : 60,
	"units" : "ug",
	"class" : "micronutrient"
},
{
	"nutrient" : "selenium_se",
	"gender" : "F",
	"age_lower" : 0,
	"age_upper" : 1,
	"estimated_average_requirement" : 12,
	"recommended_dietary_intake" : "",
	"upper_limit" : 45,
	"units" : "ug",
	"class" : "micronutrient"
},
{
	"nutrient" : "selenium_se",
	"gender" : "F",
	"age_lower" : 1,
	"age_upper" : 1,
	"estimated_average_requirement" : 15,
	"recommended_dietary_intake" : "",
	"upper_limit" : 60,
	"units" : "ug",
	"class" : "micronutrient"
},
{
	"nutrient" : "selenium_se",
	"gender" : "M",
	"age_lower" : 1,
	"age_upper" : 3,
	"estimated_average_requirement" : 20,
	"recommended_dietary_intake" : 25,
	"upper_limit" : 90,
	"units" : "ug",
	"class" : "micronutrient"
},
{
	"nutrient" : "selenium_se",
	"gender" : "M",
	"age_lower" : 4,
	"age_upper" : 8,
	"estimated_average_requirement" : 25,
	"recommended_dietary_intake" : 30,
	"upper_limit" : 150,
	"units" : "ug",
	"class" : "micronutrient"
},
{
	"nutrient" : "selenium_se",
	"gender" : "F",
	"age_lower" : 1,
	"age_upper" : 3,
	"estimated_average_requirement" : 20,
	"recommended_dietary_intake" : 25,
	"upper_limit" : 90,
	"units" : "ug",
	"class" : "micronutrient"
},
{
	"nutrient" : "selenium_se",
	"gender" : "F",
	"age_lower" : 4,
	"age_upper" : 8,
	"estimated_average_requirement" : 25,
	"recommended_dietary_intake" : 30,
	"upper_limit" : 150,
	"units" : "ug",
	"class" : "micronutrient"
},
{
	"nutrient" : "selenium_se",
	"gender" : "M",
	"age_lower" : 9,
	"age_upper" : 13,
	"estimated_average_requirement" : 40,
	"recommended_dietary_intake" : 50,
	"upper_limit" : 280,
	"units" : "ug",
	"class" : "micronutrient"
},
{
	"nutrient" : "selenium_se",
	"gender" : "M",
	"age_lower" : 14,
	"age_upper" : 18,
	"estimated_average_requirement" : 60,
	"recommended_dietary_intake" : 70,
	"upper_limit" : 400,
	"units" : "ug",
	"class" : "micronutrient"
},
{
	"nutrient" : "selenium_se",
	"gender" : "F",
	"age_lower" : 9,
	"age_upper" : 13,
	"estimated_average_requirement" : 40,
	"recommended_dietary_intake" : 50,
	"upper_limit" : 280,
	"units" : "ug",
	"class" : "micronutrient"
},
{
	"nutrient" : "selenium_se",
	"gender" : "F",
	"age_lower" : 14,
	"age_upper" : 18,
	"estimated_average_requirement" : 50,
	"recommended_dietary_intake" : 60,
	"upper_limit" : 400,
	"units" : "ug",
	"class" : "micronutrient"
},
{
	"nutrient" : "selenium_se",
	"gender" : "M",
	"age_lower" : 19,
	"age_upper" : 30,
	"estimated_average_requirement" : 60,
	"recommended_dietary_intake" : 70,
	"upper_limit" : 400,
	"units" : "ug",
	"class" : "micronutrient"
},
{
	"nutrient" : "selenium_se",
	"gender" : "M",
	"age_lower" : 31,
	"age_upper" : 50,
	"estimated_average_requirement" : 60,
	"recommended_dietary_intake" : 70,
	"upper_limit" : 400,
	"units" : "ug",
	"class" : "micronutrient"
},
{
	"nutrient" : "selenium_se",
	"gender" : "M",
	"age_lower" : 51,
	"age_upper" : 70,
	"estimated_average_requirement" : 60,
	"recommended_dietary_intake" : 70,
	"upper_limit" : 400,
	"units" : "ug",
	"class" : "micronutrient"
},
{
	"nutrient" : "selenium_se",
	"gender" : "M",
	"age_lower" : 71,
	"age_upper" : 200,
	"estimated_average_requirement" : 60,
	"recommended_dietary_intake" : 70,
	"upper_limit" : 400,
	"units" : "ug",
	"class" : "micronutrient"
},
{
	"nutrient" : "selenium_se",
	"gender" : "F",
	"age_lower" : 19,
	"age_upper" : 30,
	"estimated_average_requirement" : 50,
	"recommended_dietary_intake" : 60,
	"upper_limit" : 400,
	"units" : "ug",
	"class" : "micronutrient"
},
{
	"nutrient" : "selenium_se",
	"gender" : "F",
	"age_lower" : 31,
	"age_upper" : 50,
	"estimated_average_requirement" : 50,
	"recommended_dietary_intake" : 60,
	"upper_limit" : 400,
	"units" : "ug",
	"class" : "micronutrient"
},
{
	"nutrient" : "selenium_se",
	"gender" : "F",
	"age_lower" : 51,
	"age_upper" : 70,
	"estimated_average_requirement" : 50,
	"recommended_dietary_intake" : 60,
	"upper_limit" : 400,
	"units" : "ug",
	"class" : "micronutrient"
},
{
	"nutrient" : "selenium_se",
	"gender" : "F",
	"age_lower" : 71,
	"age_upper" : 200,
	"estimated_average_requirement" : 50,
	"recommended_dietary_intake" : 60,
	"upper_limit" : 400,
	"units" : "ug",
	"class" : "micronutrient"
},
{
	"nutrient" : "selenium_se",
	"gender" : "pregnant",
	"age_lower" : 14,
	"age_upper" : 18,
	"estimated_average_requirement" : 55,
	"recommended_dietary_intake" : 65,
	"upper_limit" : 400,
	"units" : "ug",
	"class" : "micronutrient"
},
{
	"nutrient" : "selenium_se",
	"gender" : "pregnant",
	"age_lower" : 19,
	"age_upper" : 30,
	"estimated_average_requirement" : 55,
	"recommended_dietary_intake" : 65,
	"upper_limit" : 400,
	"units" : "ug",
	"class" : "micronutrient"
},
{
	"nutrient" : "selenium_se",
	"gender" : "pregnant",
	"age_lower" : 31,
	"age_upper" : 50,
	"estimated_average_requirement" : 55,
	"recommended_dietary_intake" : 65,
	"upper_limit" : 400,
	"units" : "ug",
	"class" : "micronutrient"
},
{
	"nutrient" : "selenium_se",
	"gender" : "lactation",
	"age_lower" : 14,
	"age_upper" : 18,
	"estimated_average_requirement" : 65,
	"recommended_dietary_intake" : 75,
	"upper_limit" : 400,
	"units" : "ug",
	"class" : "micronutrient"
},
{
	"nutrient" : "selenium_se",
	"gender" : "lactation",
	"age_lower" : 19,
	"age_upper" : 30,
	"estimated_average_requirement" : 65,
	"recommended_dietary_intake" : 75,
	"upper_limit" : 400,
	"units" : "ug",
	"class" : "micronutrient"
},
{
	"nutrient" : "selenium_se",
	"gender" : "lactation",
	"age_lower" : 31,
	"age_upper" : 50,
	"estimated_average_requirement" : 65,
	"recommended_dietary_intake" : 75,
	"upper_limit" : 400,
	"units" : "ug",
	"class" : "micronutrient"
},
{
	"nutrient" : "total_folates",
	"gender" : "M",
	"age_lower" : 0,
	"age_upper" : 0.5,
	"estimated_average_requirement" : 65,
	"recommended_dietary_intake" : "",
	"upper_limit" : "",
	"units" : "ug",
	"class" : "micronutrient"
},
{
	"nutrient" : "total_folates",
	"gender" : "M",
	"age_lower" : 0.5,
	"age_upper" : 1,
	"estimated_average_requirement" : 80,
	"recommended_dietary_intake" : "",
	"upper_limit" : "",
	"units" : "ug",
	"class" : "micronutrient"
},
{
	"nutrient" : "total_folates",
	"gender" : "F",
	"age_lower" : 0,
	"age_upper" : 0.5,
	"estimated_average_requirement" : 65,
	"recommended_dietary_intake" : "",
	"upper_limit" : "",
	"units" : "ug",
	"class" : "micronutrient"
},
{
	"nutrient" : "total_folates",
	"gender" : "F",
	"age_lower" : 0.5,
	"age_upper" : 1,
	"estimated_average_requirement" : 80,
	"recommended_dietary_intake" : "",
	"upper_limit" : "",
	"units" : "ug",
	"class" : "micronutrient"
},
{
	"nutrient" : "total_folates",
	"gender" : "M",
	"age_lower" : 1,
	"age_upper" : 3,
	"estimated_average_requirement" : 120,
	"recommended_dietary_intake" : 150,
	"upper_limit" : 300,
	"units" : "ug",
	"class" : "micronutrient"
},
{
	"nutrient" : "total_folates",
	"gender" : "M",
	"age_lower" : 4,
	"age_upper" : 8,
	"estimated_average_requirement" : 160,
	"recommended_dietary_intake" : 200,
	"upper_limit" : 400,
	"units" : "ug",
	"class" : "micronutrient"
},
{
	"nutrient" : "total_folates",
	"gender" : "F",
	"age_lower" : 1,
	"age_upper" : 3,
	"estimated_average_requirement" : 120,
	"recommended_dietary_intake" : 150,
	"upper_limit" : 300,
	"units" : "ug",
	"class" : "micronutrient"
},
{
	"nutrient" : "total_folates",
	"gender" : "F",
	"age_lower" : 4,
	"age_upper" : 8,
	"estimated_average_requirement" : 160,
	"recommended_dietary_intake" : 200,
	"upper_limit" : 400,
	"units" : "ug",
	"class" : "micronutrient"
},
{
	"nutrient" : "total_folates",
	"gender" : "M",
	"age_lower" : 9,
	"age_upper" : 13,
	"estimated_average_requirement" : 250,
	"recommended_dietary_intake" : 300,
	"upper_limit" : 600,
	"units" : "ug",
	"class" : "micronutrient"
},
{
	"nutrient" : "total_folates",
	"gender" : "M",
	"age_lower" : 14,
	"age_upper" : 18,
	"estimated_average_requirement" : 330,
	"recommended_dietary_intake" : 400,
	"upper_limit" : 800,
	"units" : "ug",
	"class" : "micronutrient"
},
{
	"nutrient" : "total_folates",
	"gender" : "F",
	"age_lower" : 9,
	"age_upper" : 13,
	"estimated_average_requirement" : 250,
	"recommended_dietary_intake" : 300,
	"upper_limit" : 600,
	"units" : "ug",
	"class" : "micronutrient"
},
{
	"nutrient" : "total_folates",
	"gender" : "F",
	"age_lower" : 14,
	"age_upper" : 18,
	"estimated_average_requirement" : 330,
	"recommended_dietary_intake" : 400,
	"upper_limit" : 800,
	"units" : "ug",
	"class" : "micronutrient"
},
{
	"nutrient" : "total_folates",
	"gender" : "M",
	"age_lower" : 19,
	"age_upper" : 30,
	"estimated_average_requirement" : 320,
	"recommended_dietary_intake" : 400,
	"upper_limit" : 1000,
	"units" : "ug",
	"class" : "micronutrient"
},
{
	"nutrient" : "total_folates",
	"gender" : "M",
	"age_lower" : 31,
	"age_upper" : 50,
	"estimated_average_requirement" : 320,
	"recommended_dietary_intake" : 400,
	"upper_limit" : 1000,
	"units" : "ug",
	"class" : "micronutrient"
},
{
	"nutrient" : "total_folates",
	"gender" : "M",
	"age_lower" : 51,
	"age_upper" : 70,
	"estimated_average_requirement" : 320,
	"recommended_dietary_intake" : 400,
	"upper_limit" : 1000,
	"units" : "ug",
	"class" : "micronutrient"
},
{
	"nutrient" : "total_folates",
	"gender" : "M",
	"age_lower" : 71,
	"age_upper" : 200,
	"estimated_average_requirement" : 320,
	"recommended_dietary_intake" : 400,
	"upper_limit" : 1000,
	"units" : "ug",
	"class" : "micronutrient"
},
{
	"nutrient" : "total_folates",
	"gender" : "F",
	"age_lower" : 19,
	"age_upper" : 30,
	"estimated_average_requirement" : 320,
	"recommended_dietary_intake" : 400,
	"upper_limit" : 1000,
	"units" : "ug",
	"class" : "micronutrient"
},
{
	"nutrient" : "total_folates",
	"gender" : "F",
	"age_lower" : 31,
	"age_upper" : 50,
	"estimated_average_requirement" : 320,
	"recommended_dietary_intake" : 400,
	"upper_limit" : 1000,
	"units" : "ug",
	"class" : "micronutrient"
},
{
	"nutrient" : "total_folates",
	"gender" : "F",
	"age_lower" : 51,
	"age_upper" : 70,
	"estimated_average_requirement" : 320,
	"recommended_dietary_intake" : 400,
	"upper_limit" : 1000,
	"units" : "ug",
	"class" : "micronutrient"
},
{
	"nutrient" : "total_folates",
	"gender" : "F",
	"age_lower" : 71,
	"age_upper" : 200,
	"estimated_average_requirement" : 320,
	"recommended_dietary_intake" : 400,
	"upper_limit" : 1000,
	"units" : "ug",
	"class" : "micronutrient"
},
{
	"nutrient" : "total_folates",
	"gender" : "pregnant",
	"age_lower" : 14,
	"age_upper" : 18,
	"estimated_average_requirement" : 520,
	"recommended_dietary_intake" : 600,
	"upper_limit" : 800,
	"units" : "ug",
	"class" : "micronutrient"
},
{
	"nutrient" : "total_folates",
	"gender" : "pregnant",
	"age_lower" : 19,
	"age_upper" : 30,
	"estimated_average_requirement" : 520,
	"recommended_dietary_intake" : 600,
	"upper_limit" : 1000,
	"units" : "ug",
	"class" : "micronutrient"
},
{
	"nutrient" : "total_folates",
	"gender" : "pregnant",
	"age_lower" : 31,
	"age_upper" : 50,
	"estimated_average_requirement" : 520,
	"recommended_dietary_intake" : 600,
	"upper_limit" : 1000,
	"units" : "ug",
	"class" : "micronutrient"
},
{
	"nutrient" : "total_folates",
	"gender" : "lactation",
	"age_lower" : 14,
	"age_upper" : 18,
	"estimated_average_requirement" : 450,
	"recommended_dietary_intake" : 500,
	"upper_limit" : 800,
	"units" : "ug",
	"class" : "micronutrient"
},
{
	"nutrient" : "total_folates",
	"gender" : "lactation",
	"age_lower" : 19,
	"age_upper" : 30,
	"estimated_average_requirement" : 450,
	"recommended_dietary_intake" : 500,
	"upper_limit" : 1000,
	"units" : "ug",
	"class" : "micronutrient"
},
{
	"nutrient" : "total_folates",
	"gender" : "lactation",
	"age_lower" : 31,
	"age_upper" : 50,
	"estimated_average_requirement" : 450,
	"recommended_dietary_intake" : 500,
	"upper_limit" : 1000,
	"units" : "ug",
	"class" : "micronutrient"
},
{
	"nutrient" : "vitamin_a",
	"gender" : "M",
	"age_lower" : 0,
	"age_upper" : 0.5,
	"estimated_average_requirement" : 250,
	"recommended_dietary_intake" : "",
	"upper_limit" : 600,
	"units" : "ug",
	"class" : "micronutrient"
},
{
	"nutrient" : "vitamin_a",
	"gender" : "M",
	"age_lower" : 0.5,
	"age_upper" : 1,
	"estimated_average_requirement" : 430,
	"recommended_dietary_intake" : "",
	"upper_limit" : 600,
	"units" : "ug",
	"class" : "micronutrient"
},
{
	"nutrient" : "vitamin_a",
	"gender" : "F",
	"age_lower" : 0,
	"age_upper" : 0.5,
	"estimated_average_requirement" : 250,
	"recommended_dietary_intake" : "",
	"upper_limit" : 600,
	"units" : "ug",
	"class" : "micronutrient"
},
{
	"nutrient" : "vitamin_a",
	"gender" : "F",
	"age_lower" : 0.5,
	"age_upper" : 1,
	"estimated_average_requirement" : 430,
	"recommended_dietary_intake" : "",
	"upper_limit" : 600,
	"units" : "ug",
	"class" : "micronutrient"
},
{
	"nutrient" : "vitamin_a",
	"gender" : "M",
	"age_lower" : 1,
	"age_upper" : 3,
	"estimated_average_requirement" : 210,
	"recommended_dietary_intake" : 300,
	"upper_limit" : 600,
	"units" : "ug",
	"class" : "micronutrient"
},
{
	"nutrient" : "vitamin_a",
	"gender" : "M",
	"age_lower" : 4,
	"age_upper" : 8,
	"estimated_average_requirement" : 275,
	"recommended_dietary_intake" : 400,
	"upper_limit" : 900,
	"units" : "ug",
	"class" : "micronutrient"
},
{
	"nutrient" : "vitamin_a",
	"gender" : "F",
	"age_lower" : 1,
	"age_upper" : 3,
	"estimated_average_requirement" : 210,
	"recommended_dietary_intake" : 300,
	"upper_limit" : 600,
	"units" : "ug",
	"class" : "micronutrient"
},
{
	"nutrient" : "vitamin_a",
	"gender" : "F",
	"age_lower" : 4,
	"age_upper" : 8,
	"estimated_average_requirement" : 275,
	"recommended_dietary_intake" : 400,
	"upper_limit" : 900,
	"units" : "ug",
	"class" : "micronutrient"
},
{
	"nutrient" : "vitamin_a",
	"gender" : "M",
	"age_lower" : 9,
	"age_upper" : 13,
	"estimated_average_requirement" : 445,
	"recommended_dietary_intake" : 600,
	"upper_limit" : 1700,
	"units" : "ug",
	"class" : "micronutrient"
},
{
	"nutrient" : "vitamin_a",
	"gender" : "M",
	"age_lower" : 14,
	"age_upper" : 18,
	"estimated_average_requirement" : 630,
	"recommended_dietary_intake" : 900,
	"upper_limit" : 2800,
	"units" : "ug",
	"class" : "micronutrient"
},
{
	"nutrient" : "vitamin_a",
	"gender" : "F",
	"age_lower" : 9,
	"age_upper" : 13,
	"estimated_average_requirement" : 420,
	"recommended_dietary_intake" : 600,
	"upper_limit" : 1700,
	"units" : "ug",
	"class" : "micronutrient"
},
{
	"nutrient" : "vitamin_a",
	"gender" : "F",
	"age_lower" : 14,
	"age_upper" : 18,
	"estimated_average_requirement" : 485,
	"recommended_dietary_intake" : 700,
	"upper_limit" : 2800,
	"units" : "ug",
	"class" : "micronutrient"
},
{
	"nutrient" : "vitamin_a",
	"gender" : "M",
	"age_lower" : 19,
	"age_upper" : 200,
	"estimated_average_requirement" : 625,
	"recommended_dietary_intake" : 900,
	"upper_limit" : 3000,
	"units" : "ug",
	"class" : "micronutrient"
},
{
	"nutrient" : "vitamin_a",
	"gender" : "F",
	"age_lower" : 19,
	"age_upper" : 200,
	"estimated_average_requirement" : 500,
	"recommended_dietary_intake" : 700,
	"upper_limit" : 3000,
	"units" : "ug",
	"class" : "micronutrient"
},
{
	"nutrient" : "vitamin_a",
	"gender" : "pregnant",
	"age_lower" : 14,
	"age_upper" : 18,
	"estimated_average_requirement" : 530,
	"recommended_dietary_intake" : 700,
	"upper_limit" : 2800,
	"units" : "ug",
	"class" : "micronutrient"
},
{
	"nutrient" : "vitamin_a",
	"gender" : "pregnant",
	"age_lower" : 19,
	"age_upper" : 50,
	"estimated_average_requirement" : 550,
	"recommended_dietary_intake" : 800,
	"upper_limit" : 3000,
	"units" : "ug",
	"class" : "micronutrient"
},
{
	"nutrient" : "vitamin_a",
	"gender" : "lactation",
	"age_lower" : 14,
	"age_upper" : 18,
	"estimated_average_requirement" : 780,
	"recommended_dietary_intake" : 1100,
	"upper_limit" : 2800,
	"units" : "ug",
	"class" : "micronutrient"
},
{
	"nutrient" : "vitamin_a",
	"gender" : "lactation",
	"age_lower" : 19,
	"age_upper" : 50,
	"estimated_average_requirement" : 800,
	"recommended_dietary_intake" : 1100,
	"upper_limit" : 3000,
	"units" : "ug",
	"class" : "micronutrient"
},
{
	"nutrient" : "vitamin_b12",
	"gender" : "M",
	"age_lower" : 0,
	"age_upper" : 0.5,
	"estimated_average_requirement" : 0.4,
	"recommended_dietary_intake" : "",
	"upper_limit" : "",
	"units" : "ug",
	"class" : "micronutrient"
},
{
	"nutrient" : "vitamin_b12",
	"gender" : "M",
	"age_lower" : 0.5,
	"age_upper" : 1,
	"estimated_average_requirement" : 0.5,
	"recommended_dietary_intake" : "",
	"upper_limit" : "",
	"units" : "ug",
	"class" : "micronutrient"
},
{
	"nutrient" : "vitamin_b12",
	"gender" : "F",
	"age_lower" : 0,
	"age_upper" : 0.5,
	"estimated_average_requirement" : 0.4,
	"recommended_dietary_intake" : "",
	"upper_limit" : "",
	"units" : "ug",
	"class" : "micronutrient"
},
{
	"nutrient" : "vitamin_b12",
	"gender" : "F",
	"age_lower" : 0.5,
	"age_upper" : 1,
	"estimated_average_requirement" : 0.5,
	"recommended_dietary_intake" : "",
	"upper_limit" : "",
	"units" : "ug",
	"class" : "micronutrient"
},
{
	"nutrient" : "vitamin_b12",
	"gender" : "M",
	"age_lower" : 1,
	"age_upper" : 3,
	"estimated_average_requirement" : 0.7,
	"recommended_dietary_intake" : 0.9,
	"upper_limit" : "",
	"units" : "ug",
	"class" : "micronutrient"
},
{
	"nutrient" : "vitamin_b12",
	"gender" : "M",
	"age_lower" : 4,
	"age_upper" : 8,
	"estimated_average_requirement" : 1,
	"recommended_dietary_intake" : 1.2,
	"upper_limit" : "",
	"units" : "ug",
	"class" : "micronutrient"
},
{
	"nutrient" : "vitamin_b12",
	"gender" : "F",
	"age_lower" : 1,
	"age_upper" : 3,
	"estimated_average_requirement" : 0.7,
	"recommended_dietary_intake" : 0.9,
	"upper_limit" : "",
	"units" : "ug",
	"class" : "micronutrient"
},
{
	"nutrient" : "vitamin_b12",
	"gender" : "F",
	"age_lower" : 4,
	"age_upper" : 8,
	"estimated_average_requirement" : 1,
	"recommended_dietary_intake" : 1.2,
	"upper_limit" : "",
	"units" : "ug",
	"class" : "micronutrient"
},
{
	"nutrient" : "vitamin_b12",
	"gender" : "M",
	"age_lower" : 9,
	"age_upper" : 13,
	"estimated_average_requirement" : 1.5,
	"recommended_dietary_intake" : 1.8,
	"upper_limit" : "",
	"units" : "ug",
	"class" : "micronutrient"
},
{
	"nutrient" : "vitamin_b12",
	"gender" : "M",
	"age_lower" : 14,
	"age_upper" : 18,
	"estimated_average_requirement" : 2,
	"recommended_dietary_intake" : 2.4,
	"upper_limit" : "",
	"units" : "ug",
	"class" : "micronutrient"
},
{
	"nutrient" : "vitamin_b12",
	"gender" : "F",
	"age_lower" : 9,
	"age_upper" : 13,
	"estimated_average_requirement" : 1.5,
	"recommended_dietary_intake" : 1.8,
	"upper_limit" : "",
	"units" : "ug",
	"class" : "micronutrient"
},
{
	"nutrient" : "vitamin_b12",
	"gender" : "F",
	"age_lower" : 14,
	"age_upper" : 18,
	"estimated_average_requirement" : 2,
	"recommended_dietary_intake" : 2.4,
	"upper_limit" : "",
	"units" : "ug",
	"class" : "micronutrient"
},
{
	"nutrient" : "vitamin_b12",
	"gender" : "M",
	"age_lower" : 19,
	"age_upper" : 30,
	"estimated_average_requirement" : 2,
	"recommended_dietary_intake" : 2.4,
	"upper_limit" : "",
	"units" : "ug",
	"class" : "micronutrient"
},
{
	"nutrient" : "vitamin_b12",
	"gender" : "M",
	"age_lower" : 31,
	"age_upper" : 50,
	"estimated_average_requirement" : 2,
	"recommended_dietary_intake" : 2.4,
	"upper_limit" : "",
	"units" : "ug",
	"class" : "micronutrient"
},
{
	"nutrient" : "vitamin_b12",
	"gender" : "M",
	"age_lower" : 51,
	"age_upper" : 70,
	"estimated_average_requirement" : 2,
	"recommended_dietary_intake" : 2.4,
	"upper_limit" : "",
	"units" : "ug",
	"class" : "micronutrient"
},
{
	"nutrient" : "vitamin_b12",
	"gender" : "M",
	"age_lower" : 71,
	"age_upper" : 200,
	"estimated_average_requirement" : 2,
	"recommended_dietary_intake" : 2.4,
	"upper_limit" : "",
	"units" : "ug",
	"class" : "micronutrient"
},
{
	"nutrient" : "vitamin_b12",
	"gender" : "F",
	"age_lower" : 19,
	"age_upper" : 30,
	"estimated_average_requirement" : 2,
	"recommended_dietary_intake" : 2.4,
	"upper_limit" : "",
	"units" : "ug",
	"class" : "micronutrient"
},
{
	"nutrient" : "vitamin_b12",
	"gender" : "F",
	"age_lower" : 31,
	"age_upper" : 50,
	"estimated_average_requirement" : 2,
	"recommended_dietary_intake" : 2.4,
	"upper_limit" : "",
	"units" : "ug",
	"class" : "micronutrient"
},
{
	"nutrient" : "vitamin_b12",
	"gender" : "F",
	"age_lower" : 51,
	"age_upper" : 70,
	"estimated_average_requirement" : 2,
	"recommended_dietary_intake" : 2.4,
	"upper_limit" : "",
	"units" : "ug",
	"class" : "micronutrient"
},
{
	"nutrient" : "vitamin_b12",
	"gender" : "F",
	"age_lower" : 71,
	"age_upper" : 200,
	"estimated_average_requirement" : 2,
	"recommended_dietary_intake" : 2.4,
	"upper_limit" : "",
	"units" : "ug",
	"class" : "micronutrient"
},
{
	"nutrient" : "vitamin_b12",
	"gender" : "pregnant",
	"age_lower" : 14,
	"age_upper" : 18,
	"estimated_average_requirement" : 2.2,
	"recommended_dietary_intake" : 2.6,
	"upper_limit" : "",
	"units" : "ug",
	"class" : "micronutrient"
},
{
	"nutrient" : "vitamin_b12",
	"gender" : "pregnant",
	"age_lower" : 19,
	"age_upper" : 30,
	"estimated_average_requirement" : 2.2,
	"recommended_dietary_intake" : 2.6,
	"upper_limit" : "",
	"units" : "ug",
	"class" : "micronutrient"
},
{
	"nutrient" : "vitamin_b12",
	"gender" : "pregnant",
	"age_lower" : 31,
	"age_upper" : 50,
	"estimated_average_requirement" : 2.2,
	"recommended_dietary_intake" : 2.6,
	"upper_limit" : "",
	"units" : "ug",
	"class" : "micronutrient"
},
{
	"nutrient" : "vitamin_b12",
	"gender" : "lactation",
	"age_lower" : 14,
	"age_upper" : 18,
	"estimated_average_requirement" : 2.4,
	"recommended_dietary_intake" : 2.8,
	"upper_limit" : "",
	"units" : "ug",
	"class" : "micronutrient"
},
{
	"nutrient" : "vitamin_b12",
	"gender" : "lactation",
	"age_lower" : 19,
	"age_upper" : 30,
	"estimated_average_requirement" : 2.4,
	"recommended_dietary_intake" : 2.8,
	"upper_limit" : "",
	"units" : "ug",
	"class" : "micronutrient"
},
{
	"nutrient" : "vitamin_b12",
	"gender" : "lactation",
	"age_lower" : 31,
	"age_upper" : 50,
	"estimated_average_requirement" : 2.4,
	"recommended_dietary_intake" : 2.8,
	"upper_limit" : "",
	"units" : "ug",
	"class" : "micronutrient"
}]
