Gender,Age (Lower),Age (Upper),Adequate Requirement (mg),Recommended Dietar Intake (mg),Upper Limit (mg)
M,0,1,100,,
M,1,1,275,,
F,0,1,100,,
F,1,1,275,,
M,1,3,380,460,3000
M,4,8,405,500,3000
F,1,3,380,460,3000
F,4,8,405,500,3000
M,9,13,1055,1250,4000
M,14,18,1055,1250,4000
F,9,13,1055,1250,4000
F,14,18,1055,1250,4000
M,19,30,580,1000,4000
M,31,50,580,1000,4000
M,51,70,580,1000,4000
M,71,200,580,1000,3000
F,19,30,580,1000,4000
F,31,50,580,1000,4000
F,51,70,580,1000,4000
F,71,200,580,1000,3000
pregnant,14,18,1055,1250,3500
pregnant,19,30,580,1000,3500
pregnant,31,50,580,1000,3500
lactation,14,18,1055,1250,4000
lactation,19,30,580,1000,4000
lactation,31,50,580,1000,4000
