Gender,Age (Lower),Age (Upper),Adequate Requirement (mg),Recommended Dietar Intake (mg),Upper Limit (mg)
M,0,0.5,0.1,,NP
M,0.5,1,0.3,,NP
F,0,0.5,0.1,,NP
F,0.5,1,0.3,,NP
M,1,3,0.4,0.5,15
M,4,8,0.5,0.6,20
F,1,3,0.4,0.5,15
F,4,8,0.5,0.6,20
M,9,13,0.8,1,30
M,14,18,1.1,1.3,40
F,9,13,0.8,1,30
F,14,18,1,1.2,40
M,19,30,1.1,1.3,50
M,31,50,1.1,1.3,50
M,51,70,1.4,1.7,50
M,71,200,1.4,1.7,50
F,19,30,1.1,1.3,50
F,31,50,1.1,1.3,50
F,51,70,1.3,1.5,50
F,71,200,1.3,1.5,50
pregnant,14,18,1.6,1.9,40
pregnant,19,30,1.6,1.9,50
pregnant,31,50,1.6,1.9,50
lactation,14,18,1.7,2,40
lactation,19,30,1.7,2,50
lactation,31,50,1.7,2,50
