Description of lifestyle,Examples of occupations,PAL (low),PAL (high)
"1. At rest, exclusively sedentary or lying (chair-bound or bed-bound).","Old, infirm individuals. Unable to move around freely or earn a living",1.2,1.2
2. Exclusively sedentary activity/seated work with little or no strenuous leisure activitya,"Office employees, precision mechanics",1.4,1.5
3. Sedentary activity/seated work with some requirement for occasional walking and standing but little or no strenuous leisure activitya,"Laboratory assistants, drivers, students, assembly line workers",1.6,1.7
4. Predominantly standing or walking worka,"Housewives, salespersons, waiters, mechanics, traders",1.8,1.9
5. Heavy occupational work or highly active leisure,,2,2.4
"6. Significant amounts of sport or strenuous leisure activity in addition to 2, 3 or 4 above","Construction workers, farmers, forest workers, miners, high performance athletes",2.5,5