Age (low),Age (high),Linoleic acid (g),a-linolenic acid (g),total DHA EPA DPA (mg),gender
0,0.5,4.4,0.5,,M
0,0.5,4.4,0.5,,F
0.5,1,4.6,0.5,,M
0.5,1,4.6,0.5,,F
1,3,5,0.5,40,M
1,3,5,0.5,40,F
4,8,8,0.8,55,M
4,8,8,0.8,55,F
9,13,10,1,70,M
9,13,8,0.8,70,F
14,18,12,1.2,125,M
14,18,8,0.8,85,F
19,200,13,1.3,160,M
19,200,8,0.8,90,F
14,18,10,1,110,pregnant
19,50,10,1,115,pregnant
14,18,12,1.2,140,lactation
19,50,12,1.2,145,lactation

