Age (Low),Age (High),Adequate Requirement (ug),Recommended Dietary Intake (ug),Upper Limit (ug),gender
0,0.5,250,,600,M
0.5,1,430,,600,M
0,0.5,250,,600,F
0.5,1,430,,600,F
1,3,210,300,600,M
4,8,275,400,900,M
1,3,210,300,600,F
4,8,275,400,900,F
9,13,445,600,1700,M
14,18,630,900,2800,M
9,13,420,600,1700,F
14,18,485,700,2800,F
19,200,625,900,3000,M
19,200,500,700,3000,F
14,18,530,700,2800,pregnant
19,50,550,800,3000,pregnant
14,18,780,1100,2800,lactation
19,50,800,1100,3000,lactation