Gender,Age (Lower),Age (Upper),Adequate Requirement (mg),Recommended Dietar Intake (mg),Upper Limit (mg)
M,0,1,3,3,5
M,1,1,3,3,5
F,0,1,3,3,5
F,1,1,3,3,5
M,1,3,3,3,7
M,4,8,3,4,12
F,1,3,3,3,7
F,4,8,3,4,12
M,9,13,5,6,25
M,14,18,11,13,35
F,9,13,5,6,25
F,14,18,6,7,35
M,19,30,12,14,40
M,31,50,12,14,40
M,51,70,12,14,40
M,71,,12,14,40
F,19,30,7,8,40
F,31,50,7,8,40
F,51,70,7,8,40
F,71,,7,8,40
pregnant,14,18,9,10,35
pregnant,19,30,9,11,40
pregnant,31,50,9,11,40
lactation,14,18,9,11,35
lactation,19,30,10,12,40
lactation,31,50,10,12,40
