{
	"_id" : null,
	"energy_with_dietary_fibre_kj" : 142.22222222222223,
	"energy_without_dietary_fibre_kj" : 141.88888888888889,
	"moisture_g" : 93.47777777777776,
	"protein_g" : 0.38888888888888884,
	"total_fat_g" : 0,
	"available_carbohydrates_with_sugar_alcohols_g" : 2.1333333333333333,
	"available_carbohydrates_without_sugar_alcohol_g" : 2.1333333333333333,
	"starch_g" : 0,
	"total_sugars_g" : 0.1111111111111111,
	"dietary_fibre_g" : 0.044444444444444446,
	"alcohol_g" : 3.433333333333333,
	"ash_g" : 0.1111111111111111,
	"preformed_vitamin_a_retinol_ug" : 0,
	"beta_carotene_ug" : 0.1111111111111111,
	"provitamin_a_b_carotene_equivalents_ug" : 0.1111111111111111,
	"vitamin_a_retinol_equivalents_ug" : 0,
	"thiamin_b1_mg" : 0.01588888888888889,
	"riboflavin_b2_mg" : 0.013000000000000001,
	"niacin_b3_mg" : 0.5033333333333334,
	"niacin_derived_equivalents_mg" : 0.5033333333333334,
	"folate_natural__ug" : 2,
	"folic_acid__ug" : 0,
	"total_folates__ug" : 2,
	"dietary_folate_equivalents__ug" : 2,
	"vitamin_b6_mg" : 0.03222222222222223,
	"vitamin_b12__ug" : 0,
	"vitamin_c_mg" : 2,
	"alpha_tocopherol_mg" : 0,
	"vitamin_e_mg" : 0.0011111111111111111,
	"calcium_ca_mg" : 3.5555555555555554,
	"iodine_i_ug" : 0.5,
	"iron_fe_mg" : 0.060000000000000005,
	"magnesium_mg_mg" : 7.111111111111111,
	"phosphorus_p_mg" : 13.777777777777779,
	"potassium_k_mg" : 37.888888888888886,
	"selenium_se_ug" : 0.5,
	"sodium_na_mg" : 7.666666666666667,
	"zinc_zn_mg" : 0.008888888888888889,
	"caffeine_mg" : 0,
	"cholesterol_mg" : 0,
	"tryptophan_mg" : 0,
	"total_saturated_fat_g" : 0,
	"total_monounsaturated_fat_g" : 0,
	"total_polyunsaturated_fat_g" : 0,
	"linoleic_acid_g" : 0,
	"alpha_linolenic_acid_g" : 0,
	"eicosapentaenoic_mg" : 0,
	"docosapentaenoic_mg" : 0,
	"docosahexaenoic_mg" : 0,
	"total_long_chain_omega_3_fatty_acids_mg" : 0,
	"total_trans_fatty_acids_mg" : 0
}
