{
	"_id" : null,
	"energy_with_dietary_fibre_kj" : 1886.7142857142858,
	"energy_without_dietary_fibre_kj" : 1862.2016806722688,
	"moisture_g" : 4.801680672268908,
	"protein_g" : 6.978151260504204,
	"total_fat_g" : 17.75042016806723,
	"available_carbohydrates_with_sugar_alcohols_g" : 65.37310924369746,
	"available_carbohydrates_without_sugar_alcohol_g" : 65.37310924369746,
	"starch_g" : 40.439495798319314,
	"total_sugars_g" : 24.914285714285718,
	"dietary_fibre_g" : 3.0647058823529405,
	"alcohol_g" : 0,
	"ash_g" : 1.3605042016806714,
	"preformed_vitamin_a_retinol_ug" : 30.781512605042018,
	"beta_carotene_ug" : 30.07563025210084,
	"provitamin_a_b_carotene_equivalents_ug" : 30.084033613445378,
	"vitamin_a_retinol_equivalents_ug" : 35.7563025210084,
	"thiamin_b1_mg" : 0.11208403361344543,
	"riboflavin_b2_mg" : 0.07471428571428569,
	"niacin_b3_mg" : 1.7559663865546222,
	"niacin_derived_equivalents_mg" : 2.9304201680672275,
	"folate_natural__ug" : 20.470588235294116,
	"folic_acid__ug" : 0,
	"total_folates__ug" : 20.470588235294116,
	"dietary_folate_equivalents__ug" : 20.470588235294116,
	"vitamin_b6_mg" : 0.07184873949579829,
	"vitamin_b12__ug" : 0.061344537815125985,
	"vitamin_c_mg" : 0.6638655462184874,
	"alpha_tocopherol_mg" : 2.3605042016806745,
	"vitamin_e_mg" : 2.4111764705882353,
	"calcium_ca_mg" : 50.563025210084035,
	"iodine_i_ug" : 6.473109243697482,
	"iron_fe_mg" : 1.428991596638656,
	"magnesium_mg_mg" : 34.168067226890756,
	"phosphorus_p_mg" : 152.11764705882354,
	"potassium_k_mg" : 185.45378151260505,
	"selenium_se_ug" : 9.09411764705883,
	"sodium_na_mg" : 405.47058823529414,
	"zinc_zn_mg" : 0.8129411764705882,
	"caffeine_mg" : 1.5378151260504203,
	"cholesterol_mg" : 18.857142857142858,
	"tryptophan_mg" : 69.05042016806723,
	"total_saturated_fat_g" : 9.929663865546216,
	"total_monounsaturated_fat_g" : 4.98218487394958,
	"total_polyunsaturated_fat_g" : 1.6092436974789912,
	"linoleic_acid_g" : 1.437226890756302,
	"alpha_linolenic_acid_g" : 0.15310924369747905,
	"eicosapentaenoic_mg" : 0.983613445378151,
	"docosapentaenoic_mg" : 2.61,
	"docosahexaenoic_mg" : 0.7049579831932772,
	"total_long_chain_omega_3_fatty_acids_mg" : 4.298638655462186,
	"total_trans_fatty_acids_mg" : 242.3736974789916
}
