{
	"_id" : null,
	"energy_with_dietary_fibre_kj" : 917.9,
	"energy_without_dietary_fibre_kj" : 914.20625,
	"moisture_g" : 57.38937499999999,
	"protein_g" : 21.530625,
	"total_fat_g" : 11.691249999999998,
	"available_carbohydrates_with_sugar_alcohols_g" : 6.796875000000003,
	"available_carbohydrates_without_sugar_alcohol_g" : 6.796875000000003,
	"starch_g" : 5.985,
	"total_sugars_g" : 0.7724999999999993,
	"dietary_fibre_g" : 0.4562499999999998,
	"alcohol_g" : 0,
	"ash_g" : 1.535625000000001,
	"preformed_vitamin_a_retinol_ug" : 181.40625,
	"beta_carotene_ug" : 7.06875,
	"provitamin_a_b_carotene_equivalents_ug" : 7.45,
	"vitamin_a_retinol_equivalents_ug" : 182.6375,
	"thiamin_b1_mg" : 0.1145,
	"riboflavin_b2_mg" : 0.20944374999999998,
	"niacin_b3_mg" : 6.8029375000000005,
	"niacin_derived_equivalents_mg" : 11.643499999999992,
	"folate_natural__ug" : 26.4125,
	"folic_acid__ug" : 13.225,
	"total_folates__ug" : 39.6625,
	"dietary_folate_equivalents__ug" : 48.50625,
	"vitamin_b6_mg" : 0.38093749999999993,
	"vitamin_b12__ug" : 0.7581250000000008,
	"vitamin_c_mg" : 0.46875,
	"alpha_tocopherol_mg" : 1.3181249999999998,
	"vitamin_e_mg" : 1.3969999999999998,
	"calcium_ca_mg" : 24.4875,
	"iodine_i_ug" : 8.796250000000004,
	"iron_fe_mg" : 0.8743749999999999,
	"magnesium_mg_mg" : 24.4125,
	"phosphorus_p_mg" : 212.94375,
	"potassium_k_mg" : 256.5125,
	"selenium_se_ug" : 22.798125,
	"sodium_na_mg" : 221.2,
	"zinc_zn_mg" : 1.2895625000000002,
	"caffeine_mg" : 0,
	"cholesterol_mg" : 88.9875,
	"tryptophan_mg" : 284.7375,
	"total_saturated_fat_g" : 3.2989999999999986,
	"total_monounsaturated_fat_g" : 5.531249999999998,
	"total_polyunsaturated_fat_g" : 2.1161874999999997,
	"linoleic_acid_g" : 1.8189374999999994,
	"alpha_linolenic_acid_g" : 0.18725,
	"eicosapentaenoic_mg" : 1.8617500000000002,
	"docosapentaenoic_mg" : 9.896437500000001,
	"docosahexaenoic_mg" : 8.008375000000006,
	"total_long_chain_omega_3_fatty_acids_mg" : 19.767418749999994,
	"total_trans_fatty_acids_mg" : 85.63518750000001
}
