{
	"_id" : null,
	"energy_with_dietary_fibre_kj" : 670.8064516129032,
	"energy_without_dietary_fibre_kj" : 652.6021505376344,
	"moisture_g" : 62.935483870967744,
	"protein_g" : 6.207526881720429,
	"total_fat_g" : 5.001075268817203,
	"available_carbohydrates_with_sugar_alcohols_g" : 21.31827956989247,
	"available_carbohydrates_without_sugar_alcohol_g" : 21.30322580645162,
	"starch_g" : 19.94838709677419,
	"total_sugars_g" : 1.344086021505376,
	"dietary_fibre_g" : 2.2741935483870988,
	"alcohol_g" : 0,
	"ash_g" : 0.9043010752688174,
	"preformed_vitamin_a_retinol_ug" : 41.53763440860215,
	"beta_carotene_ug" : 183.43010752688173,
	"provitamin_a_b_carotene_equivalents_ug" : 205.247311827957,
	"vitamin_a_retinol_equivalents_ug" : 75.72043010752688,
	"thiamin_b1_mg" : 0.1023978494623656,
	"riboflavin_b2_mg" : 0.06827956989247311,
	"niacin_b3_mg" : 1.1139784946236555,
	"niacin_derived_equivalents_mg" : 2.20494623655914,
	"folate_natural__ug" : 18.182795698924732,
	"folic_acid__ug" : 0,
	"total_folates__ug" : 18.182795698924732,
	"dietary_folate_equivalents__ug" : 18.182795698924732,
	"vitamin_b6_mg" : 0.07569892473118278,
	"vitamin_b12__ug" : 0.3043010752688172,
	"vitamin_c_mg" : 2.6559139784946235,
	"alpha_tocopherol_mg" : 0.6870967741935484,
	"vitamin_e_mg" : 0.7601075268817205,
	"calcium_ca_mg" : 35.41935483870968,
	"iodine_i_ug" : 7.161290322580641,
	"iron_fe_mg" : 0.8436559139784944,
	"magnesium_mg_mg" : 19.043010752688172,
	"phosphorus_p_mg" : 92.43010752688173,
	"potassium_k_mg" : 134.3763440860215,
	"selenium_se_ug" : 5.829032258064519,
	"sodium_na_mg" : 146.51612903225808,
	"zinc_zn_mg" : 0.576451612903226,
	"caffeine_mg" : 0,
	"cholesterol_mg" : 25.0752688172043,
	"tryptophan_mg" : 64.21505376344086,
	"total_saturated_fat_g" : 1.8003225806451613,
	"total_monounsaturated_fat_g" : 1.9831182795698923,
	"total_polyunsaturated_fat_g" : 0.7143010752688176,
	"linoleic_acid_g" : 0.5961290322580644,
	"alpha_linolenic_acid_g" : 0.08731182795698922,
	"eicosapentaenoic_mg" : 3.5068817204301066,
	"docosapentaenoic_mg" : 3.5289247311827943,
	"docosahexaenoic_mg" : 6.21215053763441,
	"total_long_chain_omega_3_fatty_acids_mg" : 13.248215053763435,
	"total_trans_fatty_acids_mg" : 103.7403225806452
}
