{
	"_id" : null,
	"energy_with_dietary_fibre_kj" : 913.2,
	"energy_without_dietary_fibre_kj" : 912.52,
	"moisture_g" : 60.208,
	"protein_g" : 23.156,
	"total_fat_g" : 13.371999999999996,
	"available_carbohydrates_with_sugar_alcohols_g" : 1.44,
	"available_carbohydrates_without_sugar_alcohol_g" : 1.44,
	"starch_g" : 1.1520000000000001,
	"total_sugars_g" : 0.28800000000000003,
	"dietary_fibre_g" : 0.084,
	"alcohol_g" : 0,
	"ash_g" : 1.800000000000001,
	"preformed_vitamin_a_retinol_ug" : 20.48,
	"beta_carotene_ug" : 11.12,
	"provitamin_a_b_carotene_equivalents_ug" : 33.88,
	"vitamin_a_retinol_equivalents_ug" : 26.2,
	"thiamin_b1_mg" : 0.07767999999999999,
	"riboflavin_b2_mg" : 0.14804,
	"niacin_b3_mg" : 4.359199999999999,
	"niacin_derived_equivalents_mg" : 9.4616,
	"folate_natural__ug" : 15.96,
	"folic_acid__ug" : 1.6,
	"total_folates__ug" : 17.6,
	"dietary_folate_equivalents__ug" : 18.64,
	"vitamin_b6_mg" : 0.4423999999999999,
	"vitamin_b12__ug" : 1.66,
	"vitamin_c_mg" : 0.28,
	"alpha_tocopherol_mg" : 2.7880000000000003,
	"vitamin_e_mg" : 2.8532000000000006,
	"calcium_ca_mg" : 94.64,
	"iodine_i_ug" : 21.955999999999996,
	"iron_fe_mg" : 1.0679999999999998,
	"magnesium_mg_mg" : 28.6,
	"phosphorus_p_mg" : 314.24,
	"potassium_k_mg" : 327.24,
	"selenium_se_ug" : 28.572,
	"sodium_na_mg" : 193.48,
	"zinc_zn_mg" : 0.6200000000000001,
	"caffeine_mg" : 0,
	"cholesterol_mg" : 74.28,
	"tryptophan_mg" : 300.08,
	"total_saturated_fat_g" : 2.8723999999999994,
	"total_monounsaturated_fat_g" : 5.3784,
	"total_polyunsaturated_fat_g" : 3.7596000000000003,
	"linoleic_acid_g" : 1.1996,
	"alpha_linolenic_acid_g" : 0.3812000000000001,
	"eicosapentaenoic_mg" : 761.6628,
	"docosapentaenoic_mg" : 323.3712,
	"docosahexaenoic_mg" : 882.5508000000002,
	"total_long_chain_omega_3_fatty_acids_mg" : 1967.5855599999998,
	"total_trans_fatty_acids_mg" : 164.23760000000001
}
