{
	"_id" : null,
	"energy_with_dietary_fibre_kj" : 742.280487804878,
	"energy_without_dietary_fibre_kj" : 730.4756097560976,
	"moisture_g" : 64.89878048780487,
	"protein_g" : 2.8829268292682926,
	"total_fat_g" : 11.295121951219514,
	"available_carbohydrates_with_sugar_alcohols_g" : 15.918292682926824,
	"available_carbohydrates_without_sugar_alcohol_g" : 15.893902439024384,
	"starch_g" : 2.8963414634146347,
	"total_sugars_g" : 12.7890243902439,
	"dietary_fibre_g" : 1.4731707317073166,
	"alcohol_g" : 0.041463414634146344,
	"ash_g" : 2.879268292682927,
	"preformed_vitamin_a_retinol_ug" : 36.170731707317074,
	"beta_carotene_ug" : 179.64634146341464,
	"provitamin_a_b_carotene_equivalents_ug" : 209.28048780487805,
	"vitamin_a_retinol_equivalents_ug" : 71.03658536585365,
	"thiamin_b1_mg" : 0.08852439024390242,
	"riboflavin_b2_mg" : 0.08049999999999996,
	"niacin_b3_mg" : 0.8020731707317069,
	"niacin_derived_equivalents_mg" : 1.2901219512195123,
	"folate_natural__ug" : 21.134146341463413,
	"folic_acid__ug" : 0,
	"total_folates__ug" : 21.146341463414632,
	"dietary_folate_equivalents__ug" : 21.146341463414632,
	"vitamin_b6_mg" : 0.10158536585365847,
	"vitamin_b12__ug" : 0.1219512195121951,
	"vitamin_c_mg" : 4.402439024390244,
	"alpha_tocopherol_mg" : 1.4682926829268301,
	"vitamin_e_mg" : 1.6090243902439032,
	"calcium_ca_mg" : 40.048780487804876,
	"iodine_i_ug" : 5.430487804878051,
	"iron_fe_mg" : 1.0436585365853657,
	"magnesium_mg_mg" : 19.78048780487805,
	"phosphorus_p_mg" : 52.13414634146341,
	"potassium_k_mg" : 172.7439024390244,
	"selenium_se_ug" : 2.9097560975609764,
	"sodium_na_mg" : 851.7682926829268,
	"zinc_zn_mg" : 0.5074390243902438,
	"caffeine_mg" : 0.3902439024390244,
	"cholesterol_mg" : 22.036585365853657,
	"tryptophan_mg" : 28.670731707317074,
	"total_saturated_fat_g" : 4.095975609756097,
	"total_monounsaturated_fat_g" : 4.185975609756096,
	"total_polyunsaturated_fat_g" : 2.1223170731707324,
	"linoleic_acid_g" : 1.838414634146342,
	"alpha_linolenic_acid_g" : 0.24999999999999994,
	"eicosapentaenoic_mg" : 3.8635365853658543,
	"docosapentaenoic_mg" : 4.807317073170733,
	"docosahexaenoic_mg" : 3.238414634146342,
	"total_long_chain_omega_3_fatty_acids_mg" : 11.90878048780488,
	"total_trans_fatty_acids_mg" : 242.73987804878047
}
