{
	"_id" : null,
	"energy_with_dietary_fibre_kj" : 245.78571428571428,
	"energy_without_dietary_fibre_kj" : 213.71428571428572,
	"moisture_g" : 85.0857142857143,
	"protein_g" : 0.8571428571428573,
	"total_fat_g" : 2.928571428571428,
	"available_carbohydrates_with_sugar_alcohols_g" : 5.414285714285713,
	"available_carbohydrates_without_sugar_alcohol_g" : 5.414285714285713,
	"starch_g" : 0.042857142857142864,
	"total_sugars_g" : 5.371428571428571,
	"dietary_fibre_g" : 4.007142857142858,
	"alcohol_g" : 0,
	"ash_g" : 0.8142857142857143,
	"preformed_vitamin_a_retinol_ug" : 3.142857142857143,
	"beta_carotene_ug" : 6422.285714285715,
	"provitamin_a_b_carotene_equivalents_ug" : 8453.57142857143,
	"vitamin_a_retinol_equivalents_ug" : 1412.2142857142858,
	"thiamin_b1_mg" : 0.05992857142857143,
	"riboflavin_b2_mg" : 0.03607142857142857,
	"niacin_b3_mg" : 0.6442857142857141,
	"niacin_derived_equivalents_mg" : 0.8735714285714286,
	"folate_natural__ug" : 21.214285714285715,
	"folic_acid__ug" : 0,
	"total_folates__ug" : 21.214285714285715,
	"dietary_folate_equivalents__ug" : 21.214285714285715,
	"vitamin_b6_mg" : 0.29785714285714293,
	"vitamin_b12__ug" : 0,
	"vitamin_c_mg" : 4.785714285714286,
	"alpha_tocopherol_mg" : 0.8142857142857142,
	"vitamin_e_mg" : 0.9278571428571428,
	"calcium_ca_mg" : 34.857142857142854,
	"iodine_i_ug" : 0.5785714285714284,
	"iron_fe_mg" : 0.3642857142857143,
	"magnesium_mg_mg" : 11.785714285714286,
	"phosphorus_p_mg" : 36.07142857142857,
	"potassium_k_mg" : 256.92857142857144,
	"selenium_se_ug" : 0.5428571428571428,
	"sodium_na_mg" : 68.64285714285714,
	"zinc_zn_mg" : 0.22285714285714292,
	"caffeine_mg" : 0,
	"cholesterol_mg" : 0.9285714285714286,
	"tryptophan_mg" : 13.571428571428571,
	"total_saturated_fat_g" : 0.5785714285714285,
	"total_monounsaturated_fat_g" : 1.4578571428571432,
	"total_polyunsaturated_fat_g" : 0.6014285714285714,
	"linoleic_acid_g" : 0.5,
	"alpha_linolenic_acid_g" : 0.09785714285714286,
	"eicosapentaenoic_mg" : 0.07142857142857142,
	"docosapentaenoic_mg" : 0.3764285714285714,
	"docosahexaenoic_mg" : 0,
	"total_long_chain_omega_3_fatty_acids_mg" : 0.44742857142857145,
	"total_trans_fatty_acids_mg" : 37.96214285714286
}
