{
	"_id" : null,
	"energy_with_dietary_fibre_kj" : 791,
	"energy_without_dietary_fibre_kj" : 782,
	"moisture_g" : 59.8,
	"protein_g" : 17.375,
	"total_fat_g" : 7.7,
	"available_carbohydrates_with_sugar_alcohols_g" : 11.925,
	"available_carbohydrates_without_sugar_alcohol_g" : 11.925,
	"starch_g" : 9.95,
	"total_sugars_g" : 1.9500000000000002,
	"dietary_fibre_g" : 1.1749999999999998,
	"alcohol_g" : 0,
	"ash_g" : 1.55,
	"preformed_vitamin_a_retinol_ug" : 7.5,
	"beta_carotene_ug" : 66.5,
	"provitamin_a_b_carotene_equivalents_ug" : 68,
	"vitamin_a_retinol_equivalents_ug" : 19.25,
	"thiamin_b1_mg" : 0.151,
	"riboflavin_b2_mg" : 0.1285,
	"niacin_b3_mg" : 3.6675000000000004,
	"niacin_derived_equivalents_mg" : 6.4399999999999995,
	"folate_natural__ug" : 8.25,
	"folic_acid__ug" : 47.5,
	"total_folates__ug" : 55.75,
	"dietary_folate_equivalents__ug" : 87.5,
	"vitamin_b6_mg" : 0.10499999999999998,
	"vitamin_b12__ug" : 0.65,
	"vitamin_c_mg" : 2,
	"alpha_tocopherol_mg" : 0.925,
	"vitamin_e_mg" : 0.9624999999999999,
	"calcium_ca_mg" : 44.5,
	"iodine_i_ug" : 17.025,
	"iron_fe_mg" : 1.77,
	"magnesium_mg_mg" : 24,
	"phosphorus_p_mg" : 172.75,
	"potassium_k_mg" : 264.25,
	"selenium_se_ug" : 8.525,
	"sodium_na_mg" : 210,
	"zinc_zn_mg" : 2.7725,
	"caffeine_mg" : 0,
	"cholesterol_mg" : 41.75,
	"tryptophan_mg" : 163,
	"total_saturated_fat_g" : 2.805,
	"total_monounsaturated_fat_g" : 3.2750000000000004,
	"total_polyunsaturated_fat_g" : 0.8925000000000001,
	"linoleic_acid_g" : 0.6699999999999999,
	"alpha_linolenic_acid_g" : 0.11499999999999999,
	"eicosapentaenoic_mg" : 17.6575,
	"docosapentaenoic_mg" : 21.970000000000002,
	"docosahexaenoic_mg" : 2.8024999999999998,
	"total_long_chain_omega_3_fatty_acids_mg" : 42.431,
	"total_trans_fatty_acids_mg" : 245.82500000000002
}
