Gender,Age (Lower),Age (Upper),Adequate Requirement (mg),Recommended Dietar Intake (mg),Upper Limit (mg),phosphorus
M,0,1,100,,,phosphorus
M,1,1,275,,,phosphorus
F,0,1,100,,,phosphorus
F,1,1,275,,,phosphorus
M,1,3,380,460,3000,phosphorus
M,4,8,405,500,3000,phosphorus
F,1,3,380,460,3000,phosphorus
F,4,8,405,500,3000,phosphorus
M,9,13,1055,1250,4000,phosphorus
M,14,18,1055,1250,4000,phosphorus
F,9,13,1055,1250,4000,phosphorus
F,14,18,1055,1250,4000,phosphorus
M,19,30,580,1000,4000,phosphorus
M,31,50,580,1000,4000,phosphorus
M,51,70,580,1000,4000,phosphorus
M,71,,580,1000,3000,phosphorus
F,19,30,580,1000,4000,phosphorus
F,31,50,580,1000,4000,phosphorus
F,51,70,580,1000,4000,phosphorus
F,71,,580,1000,3000,phosphorus
pregnant,14,18,1055,1250,3500,phosphorus
pregnant,19,30,580,1000,3500,phosphorus
pregnant,31,50,580,1000,3500,phosphorus
lactation,14,18,1055,1250,4000,phosphorus
lactation,19,30,580,1000,4000,phosphorus
lactation,31,50,580,1000,4000,phosphorus
,,,,,,
,,,,,,
Gender,Age (Lower),Age (Upper),Adequate Requirement (mg),Recommended Dietar Intake (mg),Upper Limit (mg),selenium
M,0,1,12,,45,selenium
M,1,1,15,,60,selenium
F,0,1,12,,45,selenium
F,1,1,15,,60,selenium
M,1,3,20,25,90,selenium
M,4,8,25,30,150,selenium
F,1,3,20,25,90,selenium
F,4,8,25,30,150,selenium
M,9,13,40,50,280,selenium
M,14,18,60,70,400,selenium
F,9,13,40,50,280,selenium
F,14,18,50,60,400,selenium
M,19,30,60,70,400,selenium
M,31,50,60,70,400,selenium
M,51,70,60,70,400,selenium
M,71,,60,70,400,selenium
F,19,30,50,60,400,selenium
F,31,50,50,60,400,selenium
F,51,70,50,60,400,selenium
F,71,,50,60,400,selenium
pregnant,14,18,55,65,400,selenium
pregnant,19,30,55,65,400,selenium
pregnant,31,50,55,65,400,selenium
lactation,14,18,65,75,400,selenium
lactation,19,30,65,75,400,selenium
lactation,31,50,65,75,400,selenium
,,,,,,
,,,,,,
Gender,Age (Lower),Age (Upper),Adequate Requirement (mg),Recommended Dietar Intake (mg),Upper Limit (mg),zinc
M,0,1,3,3,5,zinc
M,1,1,3,3,5,zinc
F,0,1,3,3,5,zinc
F,1,1,3,3,5,zinc
M,1,3,3,3,7,zinc
M,4,8,3,4,12,zinc
F,1,3,3,3,7,zinc
F,4,8,3,4,12,zinc
M,9,13,5,6,25,zinc
M,14,18,11,13,35,zinc
F,9,13,5,6,25,zinc
F,14,18,6,7,35,zinc
M,19,30,12,14,40,zinc
M,31,50,12,14,40,zinc
M,51,70,12,14,40,zinc
M,71,,12,14,40,zinc
F,19,30,7,8,40,zinc
F,31,50,7,8,40,zinc
F,51,70,7,8,40,zinc
F,71,,7,8,40,zinc
pregnant,14,18,9,10,35,zinc
pregnant,19,30,9,11,40,zinc
pregnant,31,50,9,11,40,zinc
lactation,14,18,9,11,35,zinc
lactation,19,30,10,12,40,zinc
lactation,31,50,10,12,40,zinc
,,,,,,
Gender,Age (Lower),Age (Upper),Adequate Intake (mg),Upper Limit (mg),potassium,
M,0,1,400,NP,potassium,
M,1,1,700,NP,potassium,
F,0,1,400,NP,potassium,
F,1,1,700,NP,potassium,
M,1,3,2000,NP,potassium,
M,4,8,2300,NP,potassium,
F,1,3,2000,NP,potassium,
F,4,8,2300,NP,potassium,
M,9,13,3000,NP,potassium,
M,14,18,3600,NP,potassium,
F,9,13,2500,NP,potassium,
F,14,18,2600,NP,potassium,
M,19,30,3800,NP,potassium,
M,31,50,3800,NP,potassium,
M,51,70,3800,NP,potassium,
M,71,,3800,NP,potassium,
F,19,30,2800,NP,potassium,
F,31,50,2800,NP,potassium,
F,51,70,2800,NP,potassium,
F,71,,2800,NP,potassium,
pregnant,14,18,2800,NP,potassium,
pregnant,19,30,2800,NP,potassium,
pregnant,31,50,2800,NP,potassium,
lactation,14,18,3200,NP,potassium,
lactation,19,30,3200,NP,potassium,
lactation,31,50,3200,NP,potassium,
,,,,,,
,,,,,,
Gender,Age (Lower),Age (Upper),Adequate Intake (mg),Upper Limit (mg),sodium,
M,0,1,120,NP,sodium,
M,1,1,170,NP,sodium,
F,0,1,120,NP,sodium,
F,1,1,170,NP,sodium,
M,1,3,400,1000,sodium,
M,4,8,600,1400,sodium,
F,1,3,400,1000,sodium,
F,4,8,600,1400,sodium,
M,9,13,800,2000,sodium,
M,14,18,920,2300,sodium,
F,9,13,800,2000,sodium,
F,14,18,920,2300,sodium,
M,19,30,920,2300,sodium,
M,31,50,920,2300,sodium,
M,51,70,920,2300,sodium,
M,71,,920,2300,sodium,
F,19,30,920,2300,sodium,
F,31,50,920,2300,sodium,
F,51,70,920,2300,sodium,
F,71,,920,2300,sodium,
pregnant,14,18,920,2300,sodium,
pregnant,19,30,920,2300,sodium,
pregnant,31,50,920,2300,sodium,
lactation,14,18,920,2300,sodium,
lactation,19,30,920,2300,sodium,
lactation,31,50,920,2300,sodium,